#Case *C0       *C1       *C2       *C3       *C4       *C5        *n      *vel          Delta radius  Delta length
Case 1 707.200000 575.000000 0.000000 0.006980 0.000320 637.500000 0.410000 -260000.000000  1.863200     -4.277500
Case 2 671.840000 603.750000 0.000000 0.006631 0.000336 605.625000 0.430500 -260000.000000  1.893100     -4.341100
Case 3 742.560000 546.250000 0.000000 0.007329 0.000304 669.375000 0.389500 -260000.000000  1.825500     -4.188800
Case 4 654.160000 589.375000 0.000000 0.007503 0.000344 653.437500 0.379250 -260000.000000  1.905800     -4.413300
Case 5 724.880000 531.875000 0.000000 0.006805 0.000312 589.687500 0.420250 -260000.000000  1.916200     -4.323800
Case 6 689.520000 560.625000 0.000000 0.007154 0.000296 685.312500 0.440750 -260000.000000  1.858900     -4.405500
Case 7 760.240000 618.125000 0.000000 0.006456 0.000328 621.562500 0.399750 -260000.000000  1.771000     -3.966200
Case 8 645.320000 625.312500 0.000000 0.007242 0.000308 597.656250 0.374125 -260000.000000  1.984600     -4.497800
Case 9 716.040000 567.812500 0.000000 0.006544 0.000340 661.406250 0.415125 -260000.000000  1.787400     -4.123000
Case 10 680.680000 539.062500 0.000000 0.007591 0.000324 629.531250 0.435625 -260000.000000  1.950300     -4.547400
Case 11 751.400000 596.562500 0.000000 0.006893 0.000292 693.281250 0.394625 -260000.000000  1.761000     -4.053500
Case 12 663.000000 553.437500 0.000000 0.006718 0.000332 645.468750 0.384375 -260000.000000  1.877800     -4.323000
Case 13 733.720000 610.937500 0.000000 0.007416 0.000300 581.718750 0.425375 -260000.000000  1.934400     -4.354200
Case 14 698.360000 582.187500 0.000000 0.006369 0.000316 677.343750 0.445875 -260000.000000  1.792100     -4.202500
Case 15 769.080000 524.687500 0.000000 0.007067 0.000348 613.593750 0.404875 -260000.000000  1.834400     -4.123600
Case 16 640.900000 578.593750 0.000000 0.006849 0.000302 633.515625 0.392062 -260000.000000  1.938900     -4.478200
Case 17 711.620000 521.093750 0.000000 0.007547 0.000334 697.265625 0.433062 -260000.000000  1.832500     -4.343900
Case 18 676.260000 549.843750 0.000000 0.006500 0.000350 601.640625 0.412562 -260000.000000  1.892700     -4.313800
Case 19 746.980000 607.343750 0.000000 0.007198 0.000318 665.390625 0.371562 -260000.000000  1.790600     -4.060500
Case 20 658.580000 535.468750 0.000000 0.007024 0.000342 681.328125 0.402312 -260000.000000  1.861000     -4.379600
Case 21 729.300000 592.968750 0.000000 0.006326 0.000310 617.578125 0.443312 -260000.000000  1.826700     -4.160100
Case 22 693.940000 621.718750 0.000000 0.007373 0.000294 649.453125 0.422812 -260000.000000  1.889000     -4.388900
Case 23 764.660000 564.218750 0.000000 0.006675 0.000326 585.703125 0.381812 -260000.000000  1.844500     -4.067400
Case 24 649.740000 571.406250 0.000000 0.007460 0.000314 609.609375 0.397187 -260000.000000  1.994400     -4.585700
Case 25 720.460000 628.906250 0.000000 0.006762 0.000346 673.359375 0.438187 -260000.000000  1.761300     -4.097300
Case 26 685.100000 600.156250 0.000000 0.007111 0.000330 577.734375 0.417687 -260000.000000  1.955200     -4.424000
Case 27 755.820000 542.656250 0.000000 0.006413 0.000298 641.484375 0.376687 -260000.000000  1.798700     -4.037800
Case 28 667.420000 614.531250 0.000000 0.006587 0.000322 689.296875 0.407437 -260000.000000  1.799100     -4.218500
Case 29 738.140000 557.031250 0.000000 0.007285 0.000290 625.546875 0.448437 -260000.000000  1.893700     -4.358500
Case 30 702.780000 528.281250 0.000000 0.006936 0.000306 657.421875 0.427937 -260000.000000  1.869500     -4.356500
Case 31 773.500000 585.781250 0.000000 0.007634 0.000338 593.671875 0.386937 -260000.000000  1.869500     -4.151300
Case 32 638.690000 609.140625 0.000000 0.007613 0.000331 675.351562 0.444594 -260000.000000  1.913400     -4.581600
Case 33 709.410000 551.640625 0.000000 0.006915 0.000299 611.601562 0.403594 -260000.000000  1.910500     -4.337800
Case 34 674.050000 522.890625 0.000000 0.007264 0.000315 643.476562 0.383094 -260000.000000  1.925100     -4.434400
Case 35 744.770000 580.390625 0.000000 0.006566 0.000347 579.726562 0.424094 -260000.000000  1.845000     -4.121800
Case 36 656.370000 566.015625 0.000000 0.006391 0.000307 627.539062 0.434344 -260000.000000  1.905500     -4.422800
Case 37 727.090000 623.515625 0.000000 0.007089 0.000339 691.289062 0.393344 -260000.000000  1.757700     -4.062400
Case 38 691.730000 594.765625 0.000000 0.006740 0.000323 595.664062 0.372844 -260000.000000  1.900500     -4.253100
Case 39 762.450000 537.265625 0.000000 0.007438 0.000291 659.414062 0.413844 -260000.000000  1.835000     -4.217100
Case 40 647.530000 544.453125 0.000000 0.006653 0.000351 699.257812 0.449719 -260000.000000  1.824900     -4.384000
Case 41 718.250000 601.953125 0.000000 0.007351 0.000319 635.507812 0.408719 -260000.000000  1.868000     -4.279300
Case 42 682.890000 630.703125 0.000000 0.006304 0.000303 667.382812 0.388219 -260000.000000  1.795100     -4.124900
Case 43 753.610000 573.203125 0.000000 0.007002 0.000335 603.632812 0.429219 -260000.000000  1.851700     -4.182000
Case 44 665.210000 587.578125 0.000000 0.007176 0.000295 619.570312 0.439469 -260000.000000  1.959500     -4.555600
Case 45 735.930000 530.078125 0.000000 0.006478 0.000327 683.320312 0.398469 -260000.000000  1.762900     -4.061300
Case 46 700.570000 558.828125 0.000000 0.007525 0.000343 587.695312 0.377969 -260000.000000  1.953400     -4.382000
Case 47 771.290000 616.328125 0.000000 0.006827 0.000311 651.445312 0.418969 -260000.000000  1.769800     -4.025800
Case 48 643.110000 548.046875 0.000000 0.007133 0.000325 663.398437 0.421531 -260000.000000  1.915800     -4.526800
Case 49 713.830000 605.546875 0.000000 0.006435 0.000293 599.648437 0.380531 -260000.000000  1.871000     -4.174200
Case 50 678.470000 576.796875 0.000000 0.007482 0.000309 695.273437 0.401031 -260000.000000  1.856000     -4.374100
Case 51 749.190000 519.296875 0.000000 0.006784 0.000341 631.523437 0.442031 -260000.000000  1.828300     -4.190900
Case 52 660.790000 619.921875 0.000000 0.006958 0.000317 583.710937 0.411281 -260000.000000  1.965000     -4.463800
Case 53 731.510000 562.421875 0.000000 0.007656 0.000349 647.460937 0.370281 -260000.000000  1.846800     -4.191500
Case 54 696.150000 533.671875 0.000000 0.006609 0.000333 615.585937 0.390781 -260000.000000  1.881300     -4.266800
Case 55 766.870000 591.171875 0.000000 0.007307 0.000301 679.335937 0.431781 -260000.000000  1.785800     -4.137100
Case 56 651.950000 598.359375 0.000000 0.006522 0.000337 639.492187 0.426656 -260000.000000  1.864500     -4.339100
Case 57 722.670000 540.859375 0.000000 0.007220 0.000305 575.742187 0.385656 -260000.000000  1.958300     -4.361600
Case 58 687.310000 569.609375 0.000000 0.006871 0.000289 671.367187 0.406156 -260000.000000  1.857600     -4.327400
Case 59 758.030000 627.109375 0.000000 0.007569 0.000321 607.617187 0.447156 -260000.000000  1.870800     -4.253900
Case 60 669.630000 526.484375 0.000000 0.007394 0.000297 591.679687 0.416406 -260000.000000  2.020500     -4.630000
Case 61 740.350000 583.984375 0.000000 0.006696 0.000329 655.429687 0.375406 -260000.000000  1.778200     -4.021900
Case 62 704.990000 612.734375 0.000000 0.007045 0.000345 623.554687 0.395906 -260000.000000  1.852300     -4.211200
Case 63 775.710000 555.234375 0.000000 0.006347 0.000313 687.304687 0.436906 -260000.000000  1.722000     -3.976300
Case 64 637.585000 593.867187 0.000000 0.007013 0.000312 698.261719 0.385016 -260000.000000  1.857900     -4.380800
Case 65 708.305000 536.367187 0.000000 0.006315 0.000344 634.511719 0.426016 -260000.000000  1.820500     -4.181000
Case 66 672.945000 565.117187 0.000000 0.007362 0.000328 666.386719 0.446516 -260000.000000  1.890600     -4.477800
Case 67 743.665000 622.617187 0.000000 0.006664 0.000296 602.636719 0.405516 -260000.000000  1.847500     -4.136100
Case 68 655.265000 521.992187 0.000000 0.006838 0.000320 618.574219 0.374766 -260000.000000  1.949400     -4.446300
Case 69 725.985000 579.492187 0.000000 0.007536 0.000288 682.324219 0.415766 -260000.000000  1.839000     -4.293600
Case 70 690.625000 608.242187 0.000000 0.006489 0.000304 586.699219 0.436266 -260000.000000  1.912500     -4.339300
Case 71 761.345000 550.742187 0.000000 0.007187 0.000336 650.449219 0.395266 -260000.000000  1.803300     -4.097900
Case 72 646.425000 557.929687 0.000000 0.006576 0.000300 674.355469 0.379891 -260000.000000  1.871100     -4.353600
Case 73 717.145000 615.429687 0.000000 0.007274 0.000332 610.605469 0.420891 -260000.000000  1.883300     -4.289200
Case 74 681.785000 586.679687 0.000000 0.006925 0.000348 642.480469 0.441391 -260000.000000  1.859400     -4.335300
Case 75 752.505000 529.179687 0.000000 0.007623 0.000316 578.730469 0.400391 -260000.000000  1.941700     -4.332500
Case 76 664.105000 629.804687 0.000000 0.007449 0.000340 626.542969 0.369641 -260000.000000  1.913500     -4.359900
Case 77 734.825000 572.304687 0.000000 0.006751 0.000308 690.292969 0.410641 -260000.000000  1.771800     -4.109700
Case 78 699.465000 543.554687 0.000000 0.007100 0.000292 594.667969 0.431141 -260000.000000  1.965200     -4.486800
Case 79 770.185000 601.054687 0.000000 0.006402 0.000324 658.417969 0.390141 -260000.000000  1.727200     -3.897700
Case 80 642.005000 532.773437 0.000000 0.007580 0.000310 638.496094 0.408078 -260000.000000  1.987300     -4.651500
Case 81 712.725000 590.273437 0.000000 0.006882 0.000342 574.746094 0.449078 -260000.000000  1.911600     -4.325700
Case 82 677.365000 619.023437 0.000000 0.007231 0.000326 670.371094 0.428578 -260000.000000  1.853300     -4.356600
Case 83 748.085000 561.523437 0.000000 0.006533 0.000294 606.621094 0.387578 -260000.000000  1.851300     -4.129700
Case 84 659.685000 575.898437 0.000000 0.006358 0.000334 590.683594 0.397828 -260000.000000  1.912400     -4.329000
Case 85 730.405000 518.398437 0.000000 0.007056 0.000302 654.433594 0.438828 -260000.000000  1.858900     -4.319500
Case 86 695.045000 547.148437 0.000000 0.006707 0.000318 622.558594 0.418328 -260000.000000  1.889700     -4.334700
Case 87 765.765000 604.648437 0.000000 0.007405 0.000350 686.308594 0.377328 -260000.000000  1.743500     -3.979000
Case 88 650.845000 611.835937 0.000000 0.006795 0.000290 662.402344 0.402953 -260000.000000  1.885900     -4.399900
Case 89 721.565000 554.335937 0.000000 0.007493 0.000322 598.652344 0.443953 -260000.000000  1.937800     -4.430900
Case 90 686.205000 525.585937 0.000000 0.006446 0.000338 694.277344 0.423453 -260000.000000  1.792300     -4.224900
Case 91 756.925000 583.085937 0.000000 0.007144 0.000306 630.527344 0.382453 -260000.000000  1.834400     -4.122300
Case 92 668.525000 568.710937 0.000000 0.007318 0.000346 582.714844 0.392703 -260000.000000  1.978600     -4.477100
Case 93 739.245000 626.210937 0.000000 0.006620 0.000314 646.464844 0.433703 -260000.000000  1.788200     -4.097300
Case 94 703.885000 597.460937 0.000000 0.007667 0.000298 614.589844 0.413203 -260000.000000  1.941600     -4.443400
Case 95 774.605000 539.960937 0.000000 0.006969 0.000330 678.339844 0.372203 -260000.000000  1.752300     -3.973200
Case 96 639.795000 563.320312 0.000000 0.006904 0.000339 600.644531 0.440109 -260000.000000  1.972100     -4.574700
Case 97 710.515000 620.820312 0.000000 0.007602 0.000307 664.394531 0.399109 -260000.000000  1.855000     -4.290200
Case 98 675.155000 592.070312 0.000000 0.006555 0.000291 632.519531 0.378609 -260000.000000  1.885000     -4.290300
Case 99 745.875000 534.570312 0.000000 0.007253 0.000323 696.269531 0.419609 -260000.000000  1.786400     -4.173000
Case 100 657.475000 606.445312 0.000000 0.007078 0.000299 648.457031 0.450359 -260000.000000  1.917800     -4.520500
Case 101 728.195000 548.945312 0.000000 0.006380 0.000331 584.707031 0.409359 -260000.000000  1.867000     -4.176100
Case 102 692.835000 520.195312 0.000000 0.007427 0.000347 680.332031 0.388859 -260000.000000  1.851000     -4.313500
Case 103 763.555000 577.695312 0.000000 0.006729 0.000315 616.582031 0.429859 -260000.000000  1.822100     -4.117700
Case 104 648.635000 584.882812 0.000000 0.007340 0.000327 576.738281 0.434984 -260000.000000  2.025000     -4.650000
Case 105 719.355000 527.382812 0.000000 0.006642 0.000295 640.488281 0.393984 -260000.000000  1.858500     -4.237300
Case 106 683.995000 556.132812 0.000000 0.006991 0.000311 608.613281 0.373484 -260000.000000  1.933400     -4.364900
Case 107 754.715000 613.632812 0.000000 0.006293 0.000343 672.363281 0.414484 -260000.000000  1.701900     -3.893600
Case 108 666.315000 541.757812 0.000000 0.006467 0.000319 656.425781 0.445234 -260000.000000  1.868100     -4.391600
Case 109 737.035000 599.257812 0.000000 0.007165 0.000351 592.675781 0.404234 -260000.000000  1.867200     -4.187300
Case 110 701.675000 628.007812 0.000000 0.006816 0.000335 688.300781 0.383734 -260000.000000  1.766200     -4.078400
Case 111 772.395000 570.507812 0.000000 0.007514 0.000303 624.550781 0.424734 -260000.000000  1.856400     -4.215500
Case 112 644.215000 624.414062 0.000000 0.006424 0.000349 612.597656 0.417047 -260000.000000  1.871600     -4.302700
Case 113 714.935000 566.914062 0.000000 0.007122 0.000317 676.347656 0.376047 -260000.000000  1.818200     -4.177400
Case 114 679.575000 538.164062 0.000000 0.006773 0.000301 580.722656 0.396547 -260000.000000  1.977900     -4.458200
Case 115 750.295000 595.664062 0.000000 0.007471 0.000333 644.472656 0.437547 -260000.000000  1.830200     -4.214800
Case 116 661.895000 552.539062 0.000000 0.007645 0.000293 692.285156 0.427297 -260000.000000  1.904400     -4.550500
Case 117 732.615000 610.039062 0.000000 0.006947 0.000325 628.535156 0.386297 -260000.000000  1.827400     -4.121400
Case 118 697.255000 581.289062 0.000000 0.007296 0.000341 660.410156 0.406797 -260000.000000  1.848300     -4.288800
Case 119 767.975000 523.789062 0.000000 0.006598 0.000309 596.660156 0.447797 -260000.000000  1.859900     -4.194400
Case 120 653.055000 530.976562 0.000000 0.007209 0.000329 636.503906 0.411922 -260000.000000  1.946300     -4.536000
Case 121 723.775000 588.476562 0.000000 0.006511 0.000297 700.253906 0.370922 -260000.000000  1.752800     -4.023400
Case 122 688.415000 617.226562 0.000000 0.007558 0.000313 604.628906 0.391422 -260000.000000  1.947800     -4.419800
Case 123 759.135000 559.726562 0.000000 0.006860 0.000345 668.378906 0.432422 -260000.000000  1.763600     -4.068700
Case 124 670.735000 602.851562 0.000000 0.006686 0.000305 684.316406 0.422172 -260000.000000  1.827900     -4.302800
Case 125 741.455000 545.351562 0.000000 0.007384 0.000337 620.566406 0.381172 -260000.000000  1.868400     -4.207100
Case 126 706.095000 574.101562 0.000000 0.006337 0.000321 652.441406 0.401672 -260000.000000  1.802400     -4.130000
Case 127 776.815000 631.601562 0.000000 0.007035 0.000289 588.691406 0.442672 -260000.000000  1.861800     -4.169100
Case 128 637.032500 632.050781 0.000000 0.006713 0.000325 643.974609 0.397508 -260000.000000  1.881200     -4.359500
Case 129 707.752500 574.550781 0.000000 0.007411 0.000293 580.224609 0.438508 -260000.000000  1.982700     -4.506800
Case 130 672.392500 545.800781 0.000000 0.006364 0.000309 675.849609 0.418008 -260000.000000  1.833000     -4.295200
Case 131 743.112500 603.300781 0.000000 0.007062 0.000341 612.099609 0.377008 -260000.000000  1.833800     -4.095400
Case 132 654.712500 560.175781 0.000000 0.007236 0.000317 596.162109 0.407758 -260000.000000  1.996800     -4.575800
Case 133 725.432500 617.675781 0.000000 0.006538 0.000349 659.912109 0.448758 -260000.000000  1.758400     -4.073200
Case 134 690.072500 588.925781 0.000000 0.007585 0.000333 628.037109 0.428258 -260000.000000  1.918800     -4.443700
Case 135 760.792500 531.425781 0.000000 0.006887 0.000301 691.787109 0.387258 -260000.000000  1.767400     -4.057200
Case 136 645.872500 524.238281 0.000000 0.007673 0.000337 667.880859 0.392383 -260000.000000  1.933900     -4.545400
Case 137 716.592500 581.738281 0.000000 0.006975 0.000305 604.130859 0.433383 -260000.000000  1.905700     -4.342500
Case 138 681.232500 610.488281 0.000000 0.007324 0.000289 699.755859 0.412883 -260000.000000  1.843100     -4.357800
Case 139 751.952500 552.988281 0.000000 0.006626 0.000321 636.005859 0.371883 -260000.000000  1.801700     -4.037400
Case 140 663.552500 596.113281 0.000000 0.006451 0.000297 588.193359 0.402633 -260000.000000  1.943200     -4.396000
Case 141 734.272500 538.613281 0.000000 0.007149 0.000329 651.943359 0.443633 -260000.000000  1.841400     -4.274800
Case 142 698.912500 567.363281 0.000000 0.006800 0.000345 620.068359 0.423133 -260000.000000  1.867200     -4.280900
Case 143 769.632500 624.863281 0.000000 0.007498 0.000313 683.818359 0.382133 -260000.000000  1.764300     -4.026500
Case 144 641.452500 570.957031 0.000000 0.006495 0.000331 695.771484 0.374445 -260000.000000  1.815700     -4.244900
Case 145 712.172500 628.457031 0.000000 0.007193 0.000299 632.021484 0.415445 -260000.000000  1.874600     -4.296400
Case 146 676.812500 599.707031 0.000000 0.006844 0.000315 663.896484 0.435945 -260000.000000  1.852500     -4.346600
Case 147 747.532500 542.207031 0.000000 0.007542 0.000347 600.146484 0.394945 -260000.000000  1.892700     -4.249700
Case 148 659.132500 614.082031 0.000000 0.007367 0.000307 616.083984 0.384695 -260000.000000  1.957800     -4.473900
Case 149 729.852500 556.582031 0.000000 0.006669 0.000339 679.833984 0.425695 -260000.000000  1.770000     -4.113600
Case 150 694.492500 527.832031 0.000000 0.007018 0.000323 584.208984 0.446195 -260000.000000  1.967900     -4.497600
Case 151 765.212500 585.332031 0.000000 0.006320 0.000291 647.958984 0.405195 -260000.000000  1.769800     -4.001600
Case 152 650.292500 578.144531 0.000000 0.007105 0.000351 671.865234 0.369320 -260000.000000  1.858900     -4.311200
Case 153 721.012500 520.644531 0.000000 0.006407 0.000319 608.115234 0.410320 -260000.000000  1.869800     -4.230000
Case 154 685.652500 549.394531 0.000000 0.007454 0.000303 639.990234 0.430820 -260000.000000  1.932000     -4.505900
Case 155 756.372500 606.894531 0.000000 0.006756 0.000335 576.240234 0.389820 -260000.000000  1.846500     -4.072200
Case 156 667.972500 535.019531 0.000000 0.006931 0.000295 624.052734 0.379570 -260000.000000  1.946000     -4.443400
Case 157 738.692500 592.519531 0.000000 0.007629 0.000327 687.802734 0.420570 -260000.000000  1.802000     -4.207000
Case 158 703.332500 621.269531 0.000000 0.006582 0.000343 592.177734 0.441070 -260000.000000  1.860800     -4.225000
Case 159 774.052500 563.769531 0.000000 0.007280 0.000311 655.927734 0.400070 -260000.000000  1.801000     -4.096300
Case 160 639.242500 540.410156 0.000000 0.007302 0.000304 606.123047 0.426977 -260000.000000  2.023600     -4.705000
Case 161 709.962500 597.910156 0.000000 0.006604 0.000336 669.873047 0.385977 -260000.000000  1.774900     -4.068900
Case 162 674.602500 626.660156 0.000000 0.007651 0.000352 574.248047 0.406477 -260000.000000  1.980900     -4.482900
Case 163 745.322500 569.160156 0.000000 0.006953 0.000320 637.998047 0.447477 -260000.000000  1.831400     -4.214100
Case 164 656.922500 583.535156 0.000000 0.006778 0.000344 685.810547 0.416727 -260000.000000  1.822900     -4.304300
Case 165 727.642500 526.035156 0.000000 0.007476 0.000312 622.060547 0.375727 -260000.000000  1.905700     -4.301900
Case 166 692.282500 554.785156 0.000000 0.006429 0.000296 653.935547 0.396227 -260000.000000  1.845900     -4.245100
Case 167 763.002500 612.285156 0.000000 0.007127 0.000328 590.185547 0.437227 -260000.000000  1.858500     -4.174900
Case 168 648.082500 605.097656 0.000000 0.006342 0.000316 630.029297 0.421852 -260000.000000  1.880500     -4.352100
Case 169 718.802500 547.597656 0.000000 0.007040 0.000348 693.779297 0.380852 -260000.000000  1.777900     -4.111400
Case 170 683.442500 518.847656 0.000000 0.006691 0.000332 598.154297 0.401352 -260000.000000  1.931100     -4.383500
Case 171 754.162500 576.347656 0.000000 0.007389 0.000300 661.904297 0.442352 -260000.000000  1.827600     -4.238900
Case 172 665.762500 561.972656 0.000000 0.007563 0.000324 677.841797 0.411602 -260000.000000  1.892400     -4.465200
Case 173 736.482500 619.472656 0.000000 0.006865 0.000292 614.091797 0.370602 -260000.000000  1.853900     -4.132300
Case 174 701.122500 590.722656 0.000000 0.007214 0.000308 645.966797 0.391102 -260000.000000  1.873000     -4.295700
Case 175 771.842500 533.222656 0.000000 0.006516 0.000340 582.216797 0.432102 -260000.000000  1.839400     -4.103100
Case 176 643.662500 601.503906 0.000000 0.007433 0.000290 602.138672 0.450039 -260000.000000  2.023400     -4.718200
Case 177 714.382500 544.003906 0.000000 0.006735 0.000322 665.888672 0.409039 -260000.000000  1.817500     -4.203500
Case 178 679.022500 572.753906 0.000000 0.007084 0.000338 634.013672 0.388539 -260000.000000  1.888500     -4.328600
Case 179 749.742500 630.253906 0.000000 0.006386 0.000306 697.763672 0.429539 -260000.000000  1.713000     -3.972000
Case 180 661.342500 529.628906 0.000000 0.006560 0.000346 649.951172 0.439789 -260000.000000  1.870800     -4.390600
Case 181 732.062500 587.128906 0.000000 0.007258 0.000314 586.201172 0.398789 -260000.000000  1.916400     -4.288700
Case 182 696.702500 615.878906 0.000000 0.006909 0.000298 681.826172 0.378289 -260000.000000  1.813600     -4.181900
Case 183 767.422500 558.378906 0.000000 0.007607 0.000330 618.076172 0.419289 -260000.000000  1.861800     -4.219000
Case 184 652.502500 551.191406 0.000000 0.006822 0.000310 578.232422 0.444914 -260000.000000  2.010800     -4.619000
Case 185 723.222500 608.691406 0.000000 0.007520 0.000342 641.982422 0.403914 -260000.000000  1.847400     -4.233600
Case 186 687.862500 579.941406 0.000000 0.006473 0.000326 610.107422 0.383414 -260000.000000  1.871400     -4.222400
Case 187 758.582500 522.441406 0.000000 0.007171 0.000294 673.857422 0.424414 -260000.000000  1.814700     -4.203800
Case 188 670.182500 623.066406 0.000000 0.006996 0.000334 657.919922 0.434664 -260000.000000  1.853400     -4.344600
Case 189 740.902500 565.566406 0.000000 0.006298 0.000302 594.169922 0.393664 -260000.000000  1.851100     -4.118500
Case 190 705.542500 536.816406 0.000000 0.007345 0.000318 689.794922 0.373164 -260000.000000  1.831800     -4.241400
Case 191 776.262500 594.316406 0.000000 0.006647 0.000350 626.044922 0.414164 -260000.000000  1.759100     -3.957700
Case 192 638.137500 555.683594 0.000000 0.007378 0.000348 633.017578 0.403273 -260000.000000  1.954400     -4.551800
Case 193 708.857500 613.183594 0.000000 0.006680 0.000316 696.767578 0.444273 -260000.000000  1.770700     -4.171900
Case 194 673.497500 584.433594 0.000000 0.007029 0.000300 601.142578 0.423773 -260000.000000  1.960600     -4.494400
Case 195 744.217500 526.933594 0.000000 0.006331 0.000332 664.892578 0.382773 -260000.000000  1.761400     -4.002700
Case 196 655.817500 627.558594 0.000000 0.006506 0.000292 680.830078 0.393023 -260000.000000  1.830500     -4.266700
Case 197 726.537500 570.058594 0.000000 0.007204 0.000324 617.080078 0.434023 -260000.000000  1.884700     -4.313800
Case 198 691.177500 541.308594 0.000000 0.006855 0.000340 648.955078 0.413523 -260000.000000  1.856900     -4.301500
Case 199 761.897500 598.808594 0.000000 0.007553 0.000308 585.205078 0.372523 -260000.000000  1.900100     -4.194200
Case 200 646.977500 591.621094 0.000000 0.006942 0.000328 609.111328 0.408398 -260000.000000  1.947700     -4.478700
Case 201 717.697500 534.121094 0.000000 0.007640 0.000296 672.861328 0.449398 -260000.000000  1.877600     -4.429400
Case 202 682.337500 562.871094 0.000000 0.006593 0.000312 577.236328 0.428898 -260000.000000  1.952800     -4.425600
Case 203 753.057500 620.371094 0.000000 0.007291 0.000344 640.986328 0.387898 -260000.000000  1.798600     -4.065000
Case 204 664.657500 519.746094 0.000000 0.007116 0.000304 688.798828 0.398148 -260000.000000  1.879500     -4.427900
Case 205 735.377500 577.246094 0.000000 0.006418 0.000336 625.048828 0.439148 -260000.000000  1.803900     -4.114100
Case 206 700.017500 605.996094 0.000000 0.007465 0.000320 656.923828 0.418648 -260000.000000  1.866800     -4.341500
Case 207 770.737500 548.496094 0.000000 0.006767 0.000288 593.173828 0.377648 -260000.000000  1.866300     -4.119500
Case 208 642.557500 616.777344 0.000000 0.007160 0.000338 581.220703 0.380211 -260000.000000  1.984500     -4.483600
Case 209 713.277500 559.277344 0.000000 0.006462 0.000306 644.970703 0.421211 -260000.000000  1.832700     -4.215200
Case 210 677.917500 530.527344 0.000000 0.007509 0.000290 613.095703 0.441711 -260000.000000  1.993800     -4.633300
Case 211 748.637500 588.027344 0.000000 0.006811 0.000322 676.845703 0.400711 -260000.000000  1.761300     -4.041000
Case 212 660.237500 573.652344 0.000000 0.006636 0.000298 660.908203 0.369961 -260000.000000  1.871600     -4.305200
Case 213 730.957500 631.152344 0.000000 0.007334 0.000330 597.158203 0.410961 -260000.000000  1.884100     -4.245200
Case 214 695.597500 602.402344 0.000000 0.006287 0.000346 692.783203 0.431461 -260000.000000  1.737200     -4.071200
Case 215 766.317500 544.902344 0.000000 0.006985 0.000314 629.033203 0.390461 -260000.000000  1.826800     -4.107200
Case 216 651.397500 537.714844 0.000000 0.006375 0.000326 605.126953 0.385336 -260000.000000  1.928200     -4.383000
Case 217 722.117500 595.214844 0.000000 0.007073 0.000294 668.876953 0.426336 -260000.000000  1.829300     -4.253500
Case 218 686.757500 623.964844 0.000000 0.006724 0.000310 637.001953 0.446836 -260000.000000  1.862900     -4.324800
Case 219 757.477500 566.464844 0.000000 0.007422 0.000342 700.751953 0.405836 -260000.000000  1.757200     -4.080000
Case 220 669.077500 580.839844 0.000000 0.007596 0.000318 652.939453 0.375086 -260000.000000  1.914700     -4.415500
Case 221 739.797500 523.339844 0.000000 0.006898 0.000350 589.189453 0.416086 -260000.000000  1.883200     -4.234300
Case 222 704.437500 552.089844 0.000000 0.007247 0.000334 684.814453 0.436586 -260000.000000  1.829200     -4.316500
Case 223 775.157500 609.589844 0.000000 0.006549 0.000302 621.064453 0.395586 -260000.000000  1.787100     -3.987700
Case 224 640.347500 586.230469 0.000000 0.006615 0.000311 666.884766 0.412242 -260000.000000  1.874600     -4.401900
Case 225 711.067500 528.730469 0.000000 0.007313 0.000343 603.134766 0.371242 -260000.000000  1.919300     -4.308800
Case 226 675.707500 557.480469 0.000000 0.006964 0.000327 698.759766 0.391742 -260000.000000  1.819900     -4.271300
Case 227 746.427500 614.980469 0.000000 0.007662 0.000295 635.009766 0.432742 -260000.000000  1.870600     -4.295500
Case 228 658.027500 543.105469 0.000000 0.007487 0.000335 587.197266 0.422492 -260000.000000  2.017200     -4.633700
Case 229 728.747500 600.605469 0.000000 0.006789 0.000303 650.947266 0.381492 -260000.000000  1.813300     -4.113900
Case 230 693.387500 629.355469 0.000000 0.007138 0.000319 619.072266 0.401992 -260000.000000  1.890500     -4.310300
Case 231 764.107500 571.855469 0.000000 0.006440 0.000351 682.822266 0.442992 -260000.000000  1.709800     -3.957300
Case 232 649.187500 564.667969 0.000000 0.007051 0.000291 642.978516 0.417367 -260000.000000  1.946000     -4.549600
Case 233 719.907500 622.167969 0.000000 0.006353 0.000323 579.228516 0.376367 -260000.000000  1.850600     -4.085200
Case 234 684.547500 593.417969 0.000000 0.007400 0.000339 674.853516 0.396867 -260000.000000  1.845800     -4.302700
Case 235 755.267500 535.917969 0.000000 0.006702 0.000307 611.103516 0.437867 -260000.000000  1.856800     -4.211500
Case 236 666.867500 607.792969 0.000000 0.006876 0.000347 595.166016 0.427617 -260000.000000  1.919000     -4.391900
Case 237 737.587500 550.292969 0.000000 0.007574 0.000315 658.916016 0.386617 -260000.000000  1.847100     -4.228700
Case 238 702.227500 521.542969 0.000000 0.006527 0.000299 627.041016 0.407117 -260000.000000  1.887000     -4.314000
Case 239 772.947500 579.042969 0.000000 0.007225 0.000331 690.791016 0.448117 -260000.000000  1.753900     -4.088400
Case 240 644.767500 525.136719 0.000000 0.006746 0.000313 670.869141 0.435305 -260000.000000  1.900200     -4.512500
Case 241 715.487500 582.636719 0.000000 0.007444 0.000345 607.119141 0.394305 -260000.000000  1.899000     -4.294900
Case 242 680.127500 611.386719 0.000000 0.006397 0.000329 638.994141 0.373805 -260000.000000  1.821500     -4.134600
Case 243 750.847500 553.886719 0.000000 0.007095 0.000297 575.244141 0.414805 -260000.000000  1.924900     -4.295000
Case 244 662.447500 597.011719 0.000000 0.007269 0.000321 623.056641 0.445555 -260000.000000  1.943900     -4.535200
Case 245 733.167500 539.511719 0.000000 0.006571 0.000289 686.806641 0.404555 -260000.000000  1.788600     -4.139500
Case 246 697.807500 568.261719 0.000000 0.007618 0.000305 591.181641 0.384055 -260000.000000  1.978200     -4.455500
Case 247 768.527500 625.761719 0.000000 0.006920 0.000337 654.931641 0.425055 -260000.000000  1.754000     -4.004400
Case 248 653.607500 618.574219 0.000000 0.007531 0.000301 694.775391 0.440430 -260000.000000  1.884000     -4.518200
Case 249 724.327500 561.074219 0.000000 0.006833 0.000333 631.025391 0.399430 -260000.000000  1.839100     -4.181100
Case 250 688.967500 532.324219 0.000000 0.007182 0.000349 662.900391 0.378930 -260000.000000  1.855300     -4.278900
Case 251 759.687500 589.824219 0.000000 0.006484 0.000317 599.150391 0.419930 -260000.000000  1.821900     -4.076100
Case 252 671.287500 546.699219 0.000000 0.006309 0.000341 615.087891 0.450680 -260000.000000  1.881700     -4.353100
Case 253 742.007500 604.199219 0.000000 0.007007 0.000309 678.837891 0.409680 -260000.000000  1.781200     -4.110400
Case 254 706.647500 575.449219 0.000000 0.006658 0.000293 583.212891 0.389180 -260000.000000  1.927300     -4.305000
Case 255 777.367500 517.949219 0.000000 0.007356 0.000325 646.962891 0.430180 -260000.000000  1.822600     -4.175600
Case 256 636.756250 575.224609 0.000000 0.007550 0.000343 617.827148 0.420410 -260000.000000  1.986100     -4.629700
Case 257 707.476250 517.724609 0.000000 0.006852 0.000311 681.577148 0.379410 -260000.000000  1.825000     -4.213800
Case 258 672.116250 546.474609 0.000000 0.007201 0.000295 585.952148 0.399910 -260000.000000  2.006900     -4.555000
Case 259 742.836250 603.974609 0.000000 0.006503 0.000327 649.702148 0.440910 -260000.000000  1.772900     -4.070600
Case 260 654.436250 532.099609 0.000000 0.006328 0.000303 697.514648 0.410160 -260000.000000  1.831600     -4.332100
Case 261 725.156250 589.599609 0.000000 0.007026 0.000335 633.764648 0.369160 -260000.000000  1.832100     -4.125500
Case 262 689.796250 618.349609 0.000000 0.006677 0.000351 665.639648 0.389660 -260000.000000  1.783600     -4.105500
Case 263 760.516250 560.849609 0.000000 0.007375 0.000319 601.889648 0.430660 -260000.000000  1.883500     -4.258100
Case 264 645.596250 568.037109 0.000000 0.006765 0.000323 625.795898 0.425535 -260000.000000  1.931100     -4.490600
Case 265 716.316250 625.537109 0.000000 0.007463 0.000291 689.545898 0.384535 -260000.000000  1.818300     -4.209700
Case 266 680.956250 596.787109 0.000000 0.006416 0.000307 593.920898 0.405035 -260000.000000  1.905900     -4.306900
Case 267 751.676250 539.287109 0.000000 0.007114 0.000339 657.670898 0.446035 -260000.000000  1.810300     -4.195200
Case 268 663.276250 611.162109 0.000000 0.007288 0.000315 673.608398 0.415285 -260000.000000  1.875100     -4.411300
Case 269 733.996250 553.662109 0.000000 0.006590 0.000347 609.858398 0.374285 -260000.000000  1.827500     -4.078100
Case 270 698.636250 524.912109 0.000000 0.007637 0.000331 641.733398 0.394785 -260000.000000  1.912000     -4.404200
Case 271 769.356250 582.412109 0.000000 0.006939 0.000299 577.983398 0.435785 -260000.000000  1.885000     -4.208900
Case 272 641.176250 521.318359 0.000000 0.006983 0.000345 589.936523 0.443473 -260000.000000  2.005000     -4.645800
Case 273 711.896250 578.818359 0.000000 0.006285 0.000313 653.686523 0.402473 -260000.000000  1.796400     -4.111300
Case 274 676.536250 607.568359 0.000000 0.007332 0.000297 621.811523 0.381973 -260000.000000  1.937300     -4.415100
Case 275 747.256250 550.068359 0.000000 0.006634 0.000329 685.561523 0.422973 -260000.000000  1.755000     -4.067600
Case 276 658.856250 593.193359 0.000000 0.006808 0.000289 637.749023 0.433223 -260000.000000  1.921200     -4.481900
Case 277 729.576250 535.693359 0.000000 0.007506 0.000321 573.999023 0.392223 -260000.000000  1.961500     -4.375500
Case 278 694.216250 564.443359 0.000000 0.006459 0.000337 669.624023 0.371723 -260000.000000  1.790500     -4.098600
Case 279 764.936250 621.943359 0.000000 0.007157 0.000305 605.874023 0.412723 -260000.000000  1.848600     -4.146700
Case 280 650.016250 629.130859 0.000000 0.006546 0.000333 581.967773 0.448598 -260000.000000  1.933200     -4.429000
Case 281 720.736250 571.630859 0.000000 0.007244 0.000301 645.717773 0.407598 -260000.000000  1.867500     -4.291800
Case 282 685.376250 542.880859 0.000000 0.006895 0.000317 613.842773 0.387098 -260000.000000  1.921400     -4.364800
Case 283 756.096250 600.380859 0.000000 0.007593 0.000349 677.592773 0.428098 -260000.000000  1.781900     -4.134800
Case 284 667.696250 557.255859 0.000000 0.007419 0.000309 661.655273 0.438348 -260000.000000  1.917500     -4.533500
Case 285 738.416250 614.755859 0.000000 0.006721 0.000341 597.905273 0.397348 -260000.000000  1.828700     -4.085100
Case 286 703.056250 586.005859 0.000000 0.007070 0.000325 693.530273 0.376848 -260000.000000  1.795800     -4.156100
Case 287 773.776250 528.505859 0.000000 0.006372 0.000293 629.780273 0.417848 -260000.000000  1.806600     -4.077800
Case 288 638.966250 551.865234 0.000000 0.006437 0.000318 647.709961 0.393504 -260000.000000  1.893100     -4.390000
Case 289 709.686250 609.365234 0.000000 0.007135 0.000350 583.959961 0.434504 -260000.000000  1.905200     -4.317600
Case 290 674.326250 580.615234 0.000000 0.006786 0.000334 679.584961 0.414004 -260000.000000  1.822100     -4.273700
Case 291 745.046250 523.115234 0.000000 0.007484 0.000302 615.834961 0.373004 -260000.000000  1.901300     -4.264300
Case 292 656.646250 623.740234 0.000000 0.007659 0.000326 599.897461 0.403754 -260000.000000  1.986800     -4.552700
Case 293 727.366250 566.240234 0.000000 0.006961 0.000294 663.647461 0.444754 -260000.000000  1.836500     -4.281100
Case 294 692.006250 537.490234 0.000000 0.007310 0.000310 631.772461 0.424254 -260000.000000  1.926900     -4.462900
Case 295 762.726250 594.990234 0.000000 0.006612 0.000342 695.522461 0.383254 -260000.000000  1.697500     -3.880100
Case 296 647.806250 602.177734 0.000000 0.007223 0.000298 655.678711 0.398629 -260000.000000  1.921400     -4.482900
Case 297 718.526250 544.677734 0.000000 0.006525 0.000330 591.928711 0.439629 -260000.000000  1.885900     -4.276900
Case 298 683.166250 573.427734 0.000000 0.007572 0.000346 687.553711 0.419129 -260000.000000  1.847700     -4.366500
Case 299 753.886250 630.927734 0.000000 0.006874 0.000314 623.803711 0.378129 -260000.000000  1.807300     -4.036100
Case 300 665.486250 530.302734 0.000000 0.006699 0.000338 575.991211 0.408879 -260000.000000  1.971800     -4.466600
Case 301 736.206250 587.802734 0.000000 0.007397 0.000306 639.741211 0.449879 -260000.000000  1.866300     -4.318800
Case 302 700.846250 616.552734 0.000000 0.006350 0.000290 607.866211 0.429379 -260000.000000  1.872500     -4.258700
Case 303 771.566250 559.052734 0.000000 0.007048 0.000322 671.616211 0.388379 -260000.000000  1.767400     -4.022500
Case 304 643.386250 605.771484 0.000000 0.006917 0.000308 691.538086 0.370441 -260000.000000  1.850800     -4.319700
Case 305 714.106250 548.271484 0.000000 0.007615 0.000340 627.788086 0.411441 -260000.000000  1.901600     -4.364800
Case 306 678.746250 519.521484 0.000000 0.006568 0.000324 659.663086 0.431941 -260000.000000  1.861500     -4.360000
Case 307 749.466250 577.021484 0.000000 0.007266 0.000292 595.913086 0.390941 -260000.000000  1.902000     -4.247200
Case 308 661.066250 562.646484 0.000000 0.007092 0.000332 611.850586 0.380691 -260000.000000  1.944200     -4.428300
Case 309 731.786250 620.146484 0.000000 0.006394 0.000300 675.600586 0.421691 -260000.000000  1.759000     -4.057300
Case 310 696.426250 591.396484 0.000000 0.007441 0.000316 579.975586 0.442191 -260000.000000  1.978200     -4.509000
Case 311 767.146250 533.896484 0.000000 0.006743 0.000348 643.725586 0.401191 -260000.000000  1.778300     -4.027000
Case 312 652.226250 541.083984 0.000000 0.007354 0.000296 683.569336 0.375566 -260000.000000  1.905900     -4.458500
Case 313 722.946250 598.583984 0.000000 0.006656 0.000328 619.819336 0.416566 -260000.000000  1.833100     -4.163300
Case 314 687.586250 627.333984 0.000000 0.007005 0.000344 651.694336 0.437066 -260000.000000  1.835000     -4.277800
Case 315 758.306250 569.833984 0.000000 0.006307 0.000312 587.944336 0.396066 -260000.000000  1.832600     -4.056800
Case 316 669.906250 584.208984 0.000000 0.006481 0.000352 635.756836 0.385816 -260000.000000  1.834800     -4.195200
Case 317 740.626250 526.708984 0.000000 0.007179 0.000320 699.506836 0.426816 -260000.000000  1.789300     -4.198500
Case 318 705.266250 555.458984 0.000000 0.006830 0.000304 603.881836 0.447316 -260000.000000  1.921600     -4.405000
Case 319 775.986250 612.958984 0.000000 0.007528 0.000336 667.631836 0.406316 -260000.000000  1.771400     -4.049600
Case 320 637.861250 536.591797 0.000000 0.006885 0.000334 654.682617 0.415926 -260000.000000  1.914000     -4.500300
Case 321 708.581250 594.091797 0.000000 0.007583 0.000302 590.932617 0.374926 -260000.000000  1.957300     -4.380600
Case 322 673.221250 622.841797 0.000000 0.006536 0.000318 686.557617 0.395426 -260000.000000  1.791300     -4.170500
Case 323 743.941250 565.341797 0.000000 0.007234 0.000350 622.807617 0.436426 -260000.000000  1.846800     -4.223400
Case 324 655.541250 579.716797 0.000000 0.007059 0.000310 574.995117 0.426176 -260000.000000  2.013600     -4.595200
Case 325 726.261250 522.216797 0.000000 0.006361 0.000342 638.745117 0.385176 -260000.000000  1.804200     -4.084900
Case 326 690.901250 550.966797 0.000000 0.007408 0.000326 606.870117 0.405676 -260000.000000  1.948800     -4.449100
Case 327 761.621250 608.466797 0.000000 0.006710 0.000294 670.620117 0.446676 -260000.000000  1.769800     -4.088900
Case 328 646.701250 615.654297 0.000000 0.007495 0.000346 646.713867 0.410801 -260000.000000  1.915300     -4.478100
Case 329 717.421250 558.154297 0.000000 0.006797 0.000314 582.963867 0.369801 -260000.000000  1.914700     -4.246100
Case 330 682.061250 529.404297 0.000000 0.007146 0.000298 678.588867 0.390301 -260000.000000  1.874500     -4.371400
Case 331 752.781250 586.904297 0.000000 0.006448 0.000330 614.838867 0.431301 -260000.000000  1.800700     -4.067900
Case 332 664.381250 572.529297 0.000000 0.006623 0.000290 598.901367 0.421051 -260000.000000  1.958300     -4.481100
Case 333 735.101250 630.029297 0.000000 0.007321 0.000322 662.651367 0.380051 -260000.000000  1.803400     -4.108900
Case 334 699.741250 601.279297 0.000000 0.006972 0.000338 630.776367 0.400551 -260000.000000  1.854200     -4.236700
Case 335 770.461250 543.779297 0.000000 0.007670 0.000306 694.526367 0.441551 -260000.000000  1.793900     -4.202200
Case 336 642.281250 590.498047 0.000000 0.006317 0.000320 682.573242 0.438988 -260000.000000  1.827800     -4.338200
Case 337 713.001250 532.998047 0.000000 0.007015 0.000288 618.823242 0.397988 -260000.000000  1.915500     -4.354900
Case 338 677.641250 561.748047 0.000000 0.006666 0.000304 650.698242 0.377488 -260000.000000  1.869200     -4.284400
Case 339 748.361250 619.248047 0.000000 0.007364 0.000336 586.948242 0.418488 -260000.000000  1.881500     -4.219700
Case 340 659.961250 518.623047 0.000000 0.007539 0.000312 634.760742 0.449238 -260000.000000  1.980000     -4.669200
Case 341 730.681250 576.123047 0.000000 0.006841 0.000344 698.510742 0.408238 -260000.000000  1.746600     -4.063100
Case 342 695.321250 604.873047 0.000000 0.007190 0.000328 602.885742 0.387738 -260000.000000  1.912800     -4.319500
Case 343 766.041250 547.373047 0.000000 0.006492 0.000296 666.635742 0.428738 -260000.000000  1.773200     -4.071800
Case 344 651.121250 554.560547 0.000000 0.007277 0.000340 690.541992 0.433863 -260000.000000  1.872600     -4.478000
Case 345 721.841250 612.060547 0.000000 0.006579 0.000308 626.791992 0.392863 -260000.000000  1.827900     -4.127900
Case 346 686.481250 583.310547 0.000000 0.007626 0.000292 658.666992 0.372363 -260000.000000  1.903800     -4.379300
Case 347 757.201250 525.810547 0.000000 0.006928 0.000324 594.916992 0.413363 -260000.000000  1.876700     -4.209500
Case 348 668.801250 626.435547 0.000000 0.006754 0.000300 610.854492 0.444113 -260000.000000  1.922300     -4.435500
Case 349 739.521250 568.935547 0.000000 0.007452 0.000332 674.604492 0.403113 -260000.000000  1.808400     -4.177500
Case 350 704.161250 540.185547 0.000000 0.006405 0.000348 578.979492 0.382613 -260000.000000  1.887100     -4.202900
Case 351 774.881250 597.685547 0.000000 0.007103 0.000316 642.729492 0.423613 -260000.000000  1.795900     -4.085000
Case 352 640.071250 621.044922 0.000000 0.007125 0.000293 628.784180 0.409520 -260000.000000  1.957400     -4.543600
Case 353 710.791250 563.544922 0.000000 0.006427 0.000325 692.534180 0.450520 -260000.000000  1.770000     -4.169600
Case 354 675.431250 534.794922 0.000000 0.007474 0.000341 596.909180 0.430020 -260000.000000  1.983100     -4.564300
Case 355 746.151250 592.294922 0.000000 0.006776 0.000309 660.659180 0.389020 -260000.000000  1.784700     -4.058400
Case 356 657.751250 549.169922 0.000000 0.006950 0.000349 676.596680 0.399270 -260000.000000  1.852000     -4.343600
Case 357 728.471250 606.669922 0.000000 0.007648 0.000317 612.846680 0.440270 -260000.000000  1.906900     -4.369100
Case 358 693.111250 577.919922 0.000000 0.006601 0.000301 644.721680 0.419770 -260000.000000  1.858300     -4.292300
Case 359 763.831250 520.419922 0.000000 0.007299 0.000333 580.971680 0.378770 -260000.000000  1.900600     -4.200800
Case 360 648.911250 527.607422 0.000000 0.006514 0.000305 620.815430 0.404395 -260000.000000  1.944100     -4.480400
Case 361 719.631250 585.107422 0.000000 0.007212 0.000337 684.565430 0.445395 -260000.000000  1.801800     -4.240500
Case 362 684.271250 613.857422 0.000000 0.006863 0.000321 588.940430 0.424895 -260000.000000  1.926400     -4.377400
Case 363 754.991250 556.357422 0.000000 0.007561 0.000289 652.690430 0.383895 -260000.000000  1.847500     -4.200900
Case 364 666.591250 599.482422 0.000000 0.007386 0.000329 700.502930 0.394145 -260000.000000  1.836500     -4.330100
Case 365 737.311250 541.982422 0.000000 0.006688 0.000297 636.752930 0.435145 -260000.000000  1.847300     -4.241200
Case 366 701.951250 570.732422 0.000000 0.007037 0.000313 668.627930 0.414645 -260000.000000  1.841600     -4.287400
Case 367 772.671250 628.232422 0.000000 0.006339 0.000345 604.877930 0.373645 -260000.000000  1.746300     -3.848600
Case 368 644.491250 567.138672 0.000000 0.007604 0.000299 584.956055 0.386457 -260000.000000  2.053500     -4.673400
Case 369 715.211250 624.638672 0.000000 0.006906 0.000331 648.706055 0.427457 -260000.000000  1.814300     -4.185000
Case 370 679.851250 595.888672 0.000000 0.007255 0.000347 616.831055 0.447957 -260000.000000  1.914100     -4.438800
Case 371 750.571250 538.388672 0.000000 0.006557 0.000315 680.581055 0.406957 -260000.000000  1.763400     -4.058300
Case 372 662.171250 610.263672 0.000000 0.006383 0.000339 664.643555 0.376207 -260000.000000  1.799800     -4.139000
Case 373 732.891250 552.763672 0.000000 0.007081 0.000307 600.893555 0.417207 -260000.000000  1.905200     -4.309200
Case 374 697.531250 524.013672 0.000000 0.006732 0.000291 696.518555 0.437707 -260000.000000  1.829700     -4.336600
Case 375 768.251250 581.513672 0.000000 0.007430 0.000323 632.768555 0.396707 -260000.000000  1.828300     -4.127700
Case 376 653.331250 588.701172 0.000000 0.006645 0.000319 592.924805 0.381332 -260000.000000  1.945200     -4.394100
Case 377 724.051250 531.201172 0.000000 0.007343 0.000351 656.674805 0.422332 -260000.000000  1.842200     -4.273000
Case 378 688.691250 559.951172 0.000000 0.006296 0.000335 624.799805 0.442832 -260000.000000  1.849100     -4.264900
Case 379 759.411250 617.451172 0.000000 0.006994 0.000303 688.549805 0.401832 -260000.000000  1.752600     -4.029900
Case 380 671.011250 545.576172 0.000000 0.007168 0.000327 640.737305 0.371082 -260000.000000  1.909600     -4.372200
Case 381 741.731250 603.076172 0.000000 0.006470 0.000295 576.987305 0.412082 -260000.000000  1.875900     -4.169400
Case 382 706.371250 631.826172 0.000000 0.007517 0.000311 672.612305 0.432582 -260000.000000  1.844800     -4.324200
Case 383 777.091250 574.326172 0.000000 0.006819 0.000343 608.862305 0.391582 -260000.000000  1.799400     -4.004300
Case 384 637.308750 574.775391 0.000000 0.007195 0.000306 680.083008 0.448918 -260000.000000  1.912600     -4.589800
Case 385 708.028750 632.275391 0.000000 0.006497 0.000338 616.333008 0.407918 -260000.000000  1.816000     -4.112000
Case 386 672.668750 603.525391 0.000000 0.007544 0.000322 648.208008 0.387418 -260000.000000  1.905800     -4.400600
Case 387 743.388750 546.025391 0.000000 0.006846 0.000290 584.458008 0.428418 -260000.000000  1.915900     -4.307100
Case 388 654.988750 617.900391 0.000000 0.006672 0.000330 632.270508 0.438668 -260000.000000  1.881800     -4.381000
Case 389 725.708750 560.400391 0.000000 0.007370 0.000298 696.020508 0.397668 -260000.000000  1.813100     -4.224700
Case 390 690.348750 531.650391 0.000000 0.006323 0.000314 600.395508 0.377168 -260000.000000  1.900400     -4.266000
Case 391 761.068750 589.150391 0.000000 0.007021 0.000346 664.145508 0.418168 -260000.000000  1.762600     -4.042800
Case 392 646.148750 581.962891 0.000000 0.006410 0.000294 688.051758 0.443793 -260000.000000  1.849400     -4.406700
Case 393 716.868750 524.462891 0.000000 0.007108 0.000326 624.301758 0.402793 -260000.000000  1.890400     -4.311800
Case 394 681.508750 553.212891 0.000000 0.006759 0.000342 656.176758 0.382293 -260000.000000  1.841100     -4.235000
Case 395 752.228750 610.712891 0.000000 0.007457 0.000310 592.426758 0.423293 -260000.000000  1.897000     -4.268500
Case 396 663.828750 538.837891 0.000000 0.007632 0.000350 608.364258 0.433543 -260000.000000  1.983600     -4.604800
Case 397 734.548750 596.337891 0.000000 0.006934 0.000318 672.114258 0.392543 -260000.000000  1.785500     -4.093600
Case 398 699.188750 625.087891 0.000000 0.007283 0.000302 576.489258 0.372043 -260000.000000  1.959100     -4.356300
Case 399 769.908750 567.587891 0.000000 0.006585 0.000334 640.239258 0.413043 -260000.000000  1.768000     -4.001900
Case 400 641.728750 628.681641 0.000000 0.007414 0.000316 660.161133 0.425855 -260000.000000  1.917400     -4.528400
Case 401 712.448750 571.181641 0.000000 0.006716 0.000348 596.411133 0.384855 -260000.000000  1.867000     -4.181600
Case 402 677.088750 542.431641 0.000000 0.007065 0.000332 692.036133 0.405355 -260000.000000  1.836500     -4.325200
Case 403 747.808750 599.931641 0.000000 0.006367 0.000300 628.286133 0.446355 -260000.000000  1.805600     -4.113800
Case 404 659.408750 556.806641 0.000000 0.006541 0.000324 580.473633 0.415605 -260000.000000  1.961000     -4.454800
Case 405 730.128750 614.306641 0.000000 0.007239 0.000292 644.223633 0.374605 -260000.000000  1.847800     -4.182300
Case 406 694.768750 585.556641 0.000000 0.006890 0.000308 612.348633 0.395105 -260000.000000  1.904000     -4.320000
Case 407 765.488750 528.056641 0.000000 0.007588 0.000340 676.098633 0.436105 -260000.000000  1.802200     -4.192000
Case 408 650.568750 520.869141 0.000000 0.006977 0.000296 652.192383 0.420730 -260000.000000  1.941000     -4.561800
Case 409 721.288750 578.369141 0.000000 0.007675 0.000328 588.442383 0.379730 -260000.000000  1.941300     -4.340800
Case 410 685.928750 607.119141 0.000000 0.006628 0.000344 684.067383 0.400230 -260000.000000  1.775000     -4.128900
Case 411 756.648750 549.619141 0.000000 0.007326 0.000312 620.317383 0.441230 -260000.000000  1.871900     -4.276000
Case 412 668.248750 592.744141 0.000000 0.007152 0.000336 604.379883 0.410480 -260000.000000  1.939000     -4.438700
Case 413 738.968750 535.244141 0.000000 0.006454 0.000304 668.129883 0.369480 -260000.000000  1.784900     -4.047100
Case 414 703.608750 563.994141 0.000000 0.007501 0.000288 636.254883 0.389980 -260000.000000  1.917600     -4.389800
Case 415 774.328750 621.494141 0.000000 0.006803 0.000320 700.004883 0.430980 -260000.000000  1.709400     -3.961200
Case 416 639.518750 598.134766 0.000000 0.006737 0.000345 586.450195 0.375887 -260000.000000  1.948500     -4.398400
Case 417 710.238750 540.634766 0.000000 0.007435 0.000313 650.200195 0.416887 -260000.000000  1.887000     -4.374600
Case 418 674.878750 569.384766 0.000000 0.006388 0.000297 618.325195 0.437387 -260000.000000  1.904200     -4.390600
Case 419 745.598750 626.884766 0.000000 0.007086 0.000329 682.075195 0.396387 -260000.000000  1.756900     -4.036200
Case 420 657.198750 526.259766 0.000000 0.007261 0.000289 666.137695 0.386137 -260000.000000  1.927800     -4.497800
Case 421 727.918750 583.759766 0.000000 0.006563 0.000321 602.387695 0.427137 -260000.000000  1.855100     -4.195400
Case 422 692.558750 612.509766 0.000000 0.007610 0.000337 698.012695 0.447637 -260000.000000  1.827000     -4.357000
Case 423 763.278750 555.009766 0.000000 0.006912 0.000305 634.262695 0.406637 -260000.000000  1.823800     -4.128500
Case 424 648.358750 547.822266 0.000000 0.007523 0.000333 594.418945 0.370762 -260000.000000  2.014100     -4.568900
Case 425 719.078750 605.322266 0.000000 0.006825 0.000301 658.168945 0.411762 -260000.000000  1.820200     -4.191200
Case 426 683.718750 576.572266 0.000000 0.007174 0.000317 626.293945 0.432262 -260000.000000  1.918600     -4.443300
Case 427 754.438750 519.072266 0.000000 0.006476 0.000349 690.043945 0.391262 -260000.000000  1.727000     -3.964800
Case 428 666.038750 619.697266 0.000000 0.006301 0.000309 642.231445 0.381012 -260000.000000  1.838600     -4.197100
Case 429 736.758750 562.197266 0.000000 0.006999 0.000341 578.481445 0.422012 -260000.000000  1.898000     -4.257300
Case 430 701.398750 533.447266 0.000000 0.006650 0.000325 674.106445 0.442512 -260000.000000  1.823000     -4.282600
Case 431 772.118750 590.947266 0.000000 0.007348 0.000293 610.356445 0.401512 -260000.000000  1.861700     -4.172000
Case 432 643.938750 544.228516 0.000000 0.006606 0.000343 622.309570 0.398949 -260000.000000  1.916000     -4.414000
Case 433 714.658750 601.728516 0.000000 0.007304 0.000311 686.059570 0.439949 -260000.000000  1.819800     -4.285200
Case 434 679.298750 630.478516 0.000000 0.006955 0.000295 590.434570 0.419449 -260000.000000  1.949700     -4.431100
Case 435 750.018750 572.978516 0.000000 0.007653 0.000327 654.184570 0.378449 -260000.000000  1.830500     -4.158700
Case 436 661.618750 587.353516 0.000000 0.007479 0.000303 670.122070 0.409199 -260000.000000  1.905900     -4.480600
Case 437 732.338750 529.853516 0.000000 0.006781 0.000335 606.372070 0.450199 -260000.000000  1.875800     -4.284300
Case 438 696.978750 558.603516 0.000000 0.007130 0.000351 638.247070 0.429699 -260000.000000  1.869800     -4.334400
Case 439 767.698750 616.103516 0.000000 0.006432 0.000319 574.497070 0.388699 -260000.000000  1.822500     -3.997500
Case 440 652.778750 608.916016 0.000000 0.007043 0.000323 614.340820 0.393824 -260000.000000  1.936900     -4.435400
Case 441 723.498750 551.416016 0.000000 0.006345 0.000291 678.090820 0.434824 -260000.000000  1.793900     -4.178000
Case 442 688.138750 522.666016 0.000000 0.007392 0.000307 582.465820 0.414324 -260000.000000  2.006600     -4.560800
Case 443 758.858750 580.166016 0.000000 0.006694 0.000339 646.215820 0.373324 -260000.000000  1.764800     -3.963700
Case 444 670.458750 565.791016 0.000000 0.006868 0.000315 694.028320 0.404074 -260000.000000  1.831600     -4.312400
Case 445 741.178750 623.291016 0.000000 0.007566 0.000347 630.278320 0.445074 -260000.000000  1.844800     -4.242300
Case 446 705.818750 594.541016 0.000000 0.006519 0.000331 662.153320 0.424574 -260000.000000  1.792100     -4.150700
Case 447 776.538750 537.041016 0.000000 0.007217 0.000299 598.403320 0.383574 -260000.000000  1.875900     -4.162900
Case 448 638.413750 613.408203 0.000000 0.006465 0.000299 597.407227 0.434184 -260000.000000  1.955300     -4.501200
Case 449 709.133750 555.908203 0.000000 0.007163 0.000331 661.157227 0.393184 -260000.000000  1.841000     -4.243100
Case 450 673.773750 527.158203 0.000000 0.006814 0.000347 629.282227 0.372684 -260000.000000  1.891800     -4.310000
Case 451 744.493750 584.658203 0.000000 0.007512 0.000315 693.032227 0.413684 -260000.000000  1.792600     -4.176100
Case 452 656.093750 570.283203 0.000000 0.007337 0.000339 645.219727 0.444434 -260000.000000  1.923800     -4.535400
Case 453 726.813750 627.783203 0.000000 0.006639 0.000307 581.469727 0.403434 -260000.000000  1.877500     -4.183500
Case 454 691.453750 599.033203 0.000000 0.006988 0.000291 677.094727 0.382934 -260000.000000  1.839200     -4.252600
Case 455 762.173750 541.533203 0.000000 0.006290 0.000323 613.344727 0.423934 -260000.000000  1.805600     -4.064100
Case 456 647.253750 534.345703 0.000000 0.007075 0.000319 589.438477 0.439309 -260000.000000  2.017800     -4.663900
Case 457 717.973750 591.845703 0.000000 0.006377 0.000351 653.188477 0.398309 -260000.000000  1.760600     -4.019100
Case 458 682.613750 620.595703 0.000000 0.007424 0.000335 621.313477 0.377809 -260000.000000  1.906400     -4.332900
Case 459 753.333750 563.095703 0.000000 0.006726 0.000303 685.063477 0.418809 -260000.000000  1.766700     -4.085400
Case 460 664.933750 577.470703 0.000000 0.006901 0.000327 669.125977 0.449559 -260000.000000  1.864200     -4.415500
Case 461 735.653750 519.970703 0.000000 0.007599 0.000295 605.375977 0.408559 -260000.000000  1.938900     -4.394900
Case 462 700.293750 548.720703 0.000000 0.006552 0.000311 701.000977 0.388059 -260000.000000  1.782900     -4.148100
Case 463 771.013750 606.220703 0.000000 0.007250 0.000343 637.250977 0.429059 -260000.000000  1.794800     -4.086400
Case 464 642.833750 559.501953 0.000000 0.006683 0.000293 617.329102 0.411121 -260000.000000  1.963500     -4.535600
Case 465 713.553750 617.001953 0.000000 0.007381 0.000325 681.079102 0.370121 -260000.000000  1.807300     -4.149300
Case 466 678.193750 588.251953 0.000000 0.006334 0.000341 585.454102 0.390621 -260000.000000  1.884000     -4.228800
Case 467 748.913750 530.751953 0.000000 0.007032 0.000309 649.204102 0.431621 -260000.000000  1.836200     -4.229900
Case 468 660.513750 631.376953 0.000000 0.007206 0.000349 697.016602 0.421371 -260000.000000  1.815000     -4.309900
Case 469 731.233750 573.876953 0.000000 0.006508 0.000317 633.266602 0.380371 -260000.000000  1.812800     -4.081400
Case 470 695.873750 545.126953 0.000000 0.007555 0.000301 665.141602 0.400871 -260000.000000  1.892000     -4.402300
Case 471 766.593750 602.626953 0.000000 0.006857 0.000333 601.391602 0.441871 -260000.000000  1.824700     -4.110500
Case 472 651.673750 595.439453 0.000000 0.007643 0.000305 625.297852 0.416246 -260000.000000  1.981700     -4.610900
Case 473 722.393750 537.939453 0.000000 0.006945 0.000337 689.047852 0.375246 -260000.000000  1.784100     -4.106900
Case 474 687.033750 566.689453 0.000000 0.007294 0.000321 593.422852 0.395746 -260000.000000  1.960600     -4.439300
Case 475 757.753750 624.189453 0.000000 0.006596 0.000289 657.172852 0.436746 -260000.000000  1.777200     -4.074500
Case 476 669.353750 523.564453 0.000000 0.006421 0.000329 673.110352 0.426496 -260000.000000  1.838900     -4.324500
Case 477 740.073750 581.064453 0.000000 0.007119 0.000297 609.360352 0.385496 -260000.000000  1.882000     -4.218700
Case 478 704.713750 609.814453 0.000000 0.006770 0.000313 641.235352 0.405996 -260000.000000  1.839400     -4.214100
Case 479 775.433750 552.314453 0.000000 0.007468 0.000345 577.485352 0.446996 -260000.000000  1.892900     -4.247800
Case 480 640.623750 528.955078 0.000000 0.007446 0.000322 687.055664 0.381652 -260000.000000  1.908700     -4.496000
Case 481 711.343750 586.455078 0.000000 0.006748 0.000290 623.305664 0.422652 -260000.000000  1.880100     -4.299800
Case 482 675.983750 615.205078 0.000000 0.007097 0.000306 655.180664 0.443152 -260000.000000  1.882300     -4.417900
Case 483 746.703750 557.705078 0.000000 0.006399 0.000338 591.430664 0.402152 -260000.000000  1.831500     -4.080800
Case 484 658.303750 600.830078 0.000000 0.006574 0.000314 607.368164 0.371402 -260000.000000  1.913600     -4.321000
Case 485 729.023750 543.330078 0.000000 0.007272 0.000346 671.118164 0.412402 -260000.000000  1.814000     -4.207300
Case 486 693.663750 572.080078 0.000000 0.006923 0.000330 575.493164 0.432902 -260000.000000  1.948800     -4.415200
Case 487 764.383750 629.580078 0.000000 0.007621 0.000298 639.243164 0.391902 -260000.000000  1.834200     -4.146200
Case 488 649.463750 622.392578 0.000000 0.006835 0.000342 679.086914 0.386777 -260000.000000  1.823800     -4.255000
Case 489 720.183750 564.892578 0.000000 0.007533 0.000310 615.336914 0.427777 -260000.000000  1.921100     -4.401700
Case 490 684.823750 536.142578 0.000000 0.006486 0.000294 647.211914 0.448277 -260000.000000  1.882300     -4.398800
Case 491 755.543750 593.642578 0.000000 0.007184 0.000326 583.461914 0.407277 -260000.000000  1.881400     -4.193700
Case 492 667.143750 550.517578 0.000000 0.007010 0.000302 631.274414 0.376527 -260000.000000  1.931700     -4.416800
Case 493 737.863750 608.017578 0.000000 0.006312 0.000334 695.024414 0.417527 -260000.000000  1.705200     -3.948000
Case 494 702.503750 579.267578 0.000000 0.007359 0.000350 599.399414 0.438027 -260000.000000  1.921200     -4.398600
Case 495 773.223750 521.767578 0.000000 0.006661 0.000318 663.149414 0.397027 -260000.000000  1.770100     -4.023900
Case 496 645.043750 582.861328 0.000000 0.007315 0.000336 651.196289 0.404715 -260000.000000  1.917700     -4.483600
Case 497 715.763750 525.361328 0.000000 0.006617 0.000304 587.446289 0.445715 -260000.000000  1.929100     -4.382900
Case 498 680.403750 554.111328 0.000000 0.007664 0.000320 683.071289 0.425215 -260000.000000  1.882700     -4.459500
Case 499 751.123750 611.611328 0.000000 0.006966 0.000352 619.321289 0.384215 -260000.000000  1.800300     -4.030700
Case 500 662.723750 539.736328 0.000000 0.006792 0.000312 603.383789 0.394465 -260000.000000  1.958900     -4.464200
Case 501 733.443750 597.236328 0.000000 0.007490 0.000344 667.133789 0.435465 -260000.000000  1.814000     -4.224100
Case 502 698.083750 625.986328 0.000000 0.006443 0.000328 635.258789 0.414965 -260000.000000  1.812000     -4.146400
Case 503 768.803750 568.486328 0.000000 0.007141 0.000296 699.008789 0.373965 -260000.000000  1.754500     -4.012200
Case 504 653.883750 561.298828 0.000000 0.006356 0.000348 659.165039 0.409840 -260000.000000  1.830500     -4.267400
Case 505 724.603750 618.798828 0.000000 0.007054 0.000316 595.415039 0.450840 -260000.000000  1.895100     -4.312400
Case 506 689.243750 590.048828 0.000000 0.006705 0.000300 691.040039 0.430340 -260000.000000  1.812900     -4.273600
Case 507 759.963750 532.548828 0.000000 0.007403 0.000332 627.290039 0.389340 -260000.000000  1.850700     -4.173900
Case 508 671.563750 604.423828 0.000000 0.007577 0.000292 579.477539 0.399590 -260000.000000  2.020900     -4.577200
Case 509 742.283750 546.923828 0.000000 0.006879 0.000324 643.227539 0.440590 -260000.000000  1.828000     -4.210800
Case 510 706.923750 518.173828 0.000000 0.007228 0.000340 611.352539 0.420090 -260000.000000  1.920100     -4.394900
Case 511 777.643750 575.673828 0.000000 0.006530 0.000308 675.102539 0.379090 -260000.000000  1.730500     -3.912900
Case 512 636.618125 604.086914 0.000000 0.007265 0.000351 668.254395 0.435865 -260000.000000  1.888300     -4.489100
Case 513 707.269062 532.155762 0.000000 0.007541 0.000343 654.122314 0.443353 -260000.000000  1.881200     -4.406500
Case 514 671.909062 560.905762 0.000000 0.006494 0.000327 622.247314 0.422853 -260000.000000  1.887300     -4.347500
Case 515 742.629062 618.405762 0.000000 0.007192 0.000295 685.997314 0.381853 -260000.000000  1.783000     -4.088500
Case 516 654.229062 517.780762 0.000000 0.007017 0.000335 638.184814 0.392103 -260000.000000  1.929500     -4.464500
Case 517 724.949062 575.280762 0.000000 0.006319 0.000303 574.434814 0.433103 -260000.000000  1.893200     -4.242500
Case 518 689.589062 604.030762 0.000000 0.007366 0.000319 670.059814 0.412603 -260000.000000  1.856200     -4.336100
Case 519 760.309062 546.530762 0.000000 0.006668 0.000351 606.309814 0.371603 -260000.000000  1.811100     -4.015400
Case 520 645.389062 553.718262 0.000000 0.007454 0.000291 582.403564 0.407478 -260000.000000  2.059400     -4.713600
Case 521 716.109062 611.218262 0.000000 0.006756 0.000323 646.153564 0.448478 -260000.000000  1.820700     -4.217000
Case 522 680.749062 582.468262 0.000000 0.007105 0.000339 614.278564 0.427978 -260000.000000  1.913900     -4.407700
Case 523 751.469062 524.968262 0.000000 0.006407 0.000307 678.028564 0.386978 -260000.000000  1.763600     -4.027000
Case 524 663.069062 625.593262 0.000000 0.006581 0.000347 662.091064 0.397228 -260000.000000  1.806500     -4.185200
Case 525 733.789062 568.093262 0.000000 0.007279 0.000315 598.341064 0.438228 -260000.000000  1.911800     -4.346400
Case 526 698.429062 539.343262 0.000000 0.006930 0.000299 693.966064 0.417728 -260000.000000  1.828900     -4.305800
Case 527 769.149062 596.843262 0.000000 0.007628 0.000331 630.216064 0.376728 -260000.000000  1.829400     -4.100500
Case 528 640.969062 535.749512 0.000000 0.006363 0.000313 618.262939 0.379290 -260000.000000  1.932700     -4.413200
Case 529 711.689062 593.249512 0.000000 0.007061 0.000345 682.012939 0.420290 -260000.000000  1.790400     -4.180400
Case 530 676.329062 621.999512 0.000000 0.006712 0.000329 586.387939 0.440790 -260000.000000  1.918900     -4.376000
Case 531 747.049062 564.499512 0.000000 0.007410 0.000297 650.137939 0.399790 -260000.000000  1.847300     -4.222300
Case 532 658.649062 578.874512 0.000000 0.007585 0.000321 697.950439 0.369040 -260000.000000  1.866700     -4.369600
Case 533 729.369062 521.374512 0.000000 0.006887 0.000289 634.200439 0.410040 -260000.000000  1.877200     -4.291500
Case 534 694.009062 550.124512 0.000000 0.007236 0.000305 666.075439 0.430540 -260000.000000  1.878000     -4.406000
Case 535 764.729062 607.624512 0.000000 0.006538 0.000337 602.325439 0.389540 -260000.000000  1.789700     -3.971000
Case 536 649.809062 614.812012 0.000000 0.007323 0.000301 626.231689 0.384415 -260000.000000  1.955700     -4.492700
Case 537 720.529062 557.312012 0.000000 0.006625 0.000333 689.981689 0.425415 -260000.000000  1.768700     -4.131600
Case 538 685.169062 528.562012 0.000000 0.007672 0.000349 594.356689 0.445915 -260000.000000  1.986800     -4.583800
Case 539 755.889062 586.062012 0.000000 0.006974 0.000317 658.106689 0.404915 -260000.000000  1.789300     -4.083800
Case 540 667.489062 571.687012 0.000000 0.006799 0.000341 674.044189 0.374165 -260000.000000  1.828900     -4.229900
Case 541 738.209062 629.187012 0.000000 0.007497 0.000309 610.294189 0.415165 -260000.000000  1.885500     -4.271500
Case 542 702.849062 600.437012 0.000000 0.006450 0.000293 642.169189 0.435665 -260000.000000  1.841600     -4.251500
Case 543 773.569062 542.937012 0.000000 0.007148 0.000325 578.419189 0.394665 -260000.000000  1.883900     -4.166500
Case 544 638.759062 566.296387 0.000000 0.007083 0.000350 691.973877 0.411321 -260000.000000  1.856100     -4.413300
Case 545 709.479062 623.796387 0.000000 0.006385 0.000318 628.223877 0.370321 -260000.000000  1.808700     -4.058600
Case 546 674.119062 595.046387 0.000000 0.007432 0.000302 660.098877 0.390821 -260000.000000  1.898300     -4.404200
Case 547 744.839062 537.546387 0.000000 0.006734 0.000334 596.348877 0.431821 -260000.000000  1.866700     -4.214600
Case 548 656.439062 609.421387 0.000000 0.006908 0.000294 612.286377 0.421571 -260000.000000  1.951800     -4.499100
Case 549 727.159062 551.921387 0.000000 0.007606 0.000326 676.036377 0.380571 -260000.000000  1.831700     -4.217600
Case 550 691.799062 523.171387 0.000000 0.006559 0.000342 580.411377 0.401071 -260000.000000  1.925600     -4.332300
Case 551 762.519062 580.671387 0.000000 0.007257 0.000310 644.161377 0.442071 -260000.000000  1.826300     -4.196300
Case 552 647.599062 587.858887 0.000000 0.006472 0.000330 684.005127 0.416446 -260000.000000  1.821400     -4.296200
Case 553 718.319062 530.358887 0.000000 0.007170 0.000298 620.255127 0.375446 -260000.000000  1.908700     -4.307200
Case 554 682.959062 559.108887 0.000000 0.006821 0.000314 652.130127 0.395946 -260000.000000  1.868200     -4.311800
Case 555 753.679062 616.608887 0.000000 0.007519 0.000346 588.380127 0.436946 -260000.000000  1.880800     -4.239900
Case 556 665.279062 544.733887 0.000000 0.007345 0.000306 636.192627 0.426696 -260000.000000  1.952700     -4.561600
Case 557 735.999062 602.233887 0.000000 0.006647 0.000338 699.942627 0.385696 -260000.000000  1.719100     -3.958300
Case 558 700.639062 630.983887 0.000000 0.006996 0.000322 604.317627 0.406196 -260000.000000  1.889200     -4.280100
Case 559 771.359062 573.483887 0.000000 0.006298 0.000290 668.067627 0.447196 -260000.000000  1.753600     -4.033500
Case 560 643.179062 620.202637 0.000000 0.007650 0.000340 648.145752 0.434384 -260000.000000  1.933700     -4.565400
Case 561 713.899062 562.702637 0.000000 0.006952 0.000308 584.395752 0.393384 -260000.000000  1.931600     -4.324900
Case 562 678.539062 533.952637 0.000000 0.007301 0.000292 680.020752 0.372884 -260000.000000  1.883800     -4.372300
Case 563 749.259062 591.452637 0.000000 0.006603 0.000324 616.270752 0.413884 -260000.000000  1.813700     -4.087000
Case 564 660.859062 548.327637 0.000000 0.006429 0.000300 600.333252 0.444634 -260000.000000  1.952900     -4.501800
Case 565 731.579062 605.827637 0.000000 0.007127 0.000332 664.083252 0.403634 -260000.000000  1.797900     -4.132600
Case 566 696.219062 577.077637 0.000000 0.006778 0.000348 632.208252 0.383134 -260000.000000  1.841900     -4.188100
Case 567 766.939062 519.577637 0.000000 0.007476 0.000316 695.958252 0.424134 -260000.000000  1.786100     -4.165900
Case 568 652.019062 526.765137 0.000000 0.006690 0.000328 656.114502 0.439509 -260000.000000  1.896800     -4.475700
Case 569 722.739062 584.265137 0.000000 0.007388 0.000296 592.364502 0.398509 -260000.000000  1.938200     -4.358400
Case 570 687.379062 613.015137 0.000000 0.006341 0.000312 687.989502 0.378009 -260000.000000  1.769100     -4.077100
Case 571 758.099062 555.515137 0.000000 0.007039 0.000344 624.239502 0.419009 -260000.000000  1.824300     -4.137500
Case 572 669.699062 598.640137 0.000000 0.007214 0.000320 576.427002 0.449759 -260000.000000  1.994700     -4.569500
Case 573 740.419062 541.140137 0.000000 0.006516 0.000352 640.177002 0.408759 -260000.000000  1.787200     -4.067600
Case 574 705.059062 569.890137 0.000000 0.007563 0.000336 608.302002 0.388259 -260000.000000  1.925400     -4.361000
Case 575 775.779062 627.390137 0.000000 0.006865 0.000304 672.052002 0.429259 -260000.000000  1.748900     -4.013200
Case 576 637.654062 522.272949 0.000000 0.007508 0.000302 683.009033 0.397868 -260000.000000  1.935400     -4.589100
Case 577 708.374062 579.772949 0.000000 0.006810 0.000334 619.259033 0.438868 -260000.000000  1.865400     -4.283200
Case 578 673.014062 608.522949 0.000000 0.007159 0.000350 651.134033 0.418368 -260000.000000  1.860400     -4.333900
Case 579 743.734062 551.022949 0.000000 0.006461 0.000318 587.384033 0.377368 -260000.000000  1.859800     -4.111500
Case 580 655.334062 594.147949 0.000000 0.006287 0.000342 635.196533 0.408118 -260000.000000  1.841300     -4.245500
Case 581 726.054062 536.647949 0.000000 0.006985 0.000310 698.946533 0.449118 -260000.000000  1.800200     -4.259300
Case 582 690.694062 565.397949 0.000000 0.006636 0.000294 603.321533 0.428618 -260000.000000  1.925600     -4.398800
Case 583 761.414062 622.897949 0.000000 0.007334 0.000326 667.071533 0.387618 -260000.000000  1.775100     -4.039800
Case 584 646.494062 630.085449 0.000000 0.006723 0.000314 690.977783 0.392743 -260000.000000  1.825000     -4.282400
Case 585 717.214062 572.585449 0.000000 0.007421 0.000346 627.227783 0.433743 -260000.000000  1.879500     -4.330800
Case 586 681.854062 543.835449 0.000000 0.006374 0.000330 659.102783 0.413243 -260000.000000  1.828000     -4.243500
Case 587 752.574062 601.335449 0.000000 0.007072 0.000298 595.352783 0.372243 -260000.000000  1.875300     -4.150100
Case 588 664.174062 558.210449 0.000000 0.007247 0.000322 611.290283 0.402993 -260000.000000  1.962800     -4.505900
Case 589 734.894062 615.710449 0.000000 0.006549 0.000290 675.040283 0.443993 -260000.000000  1.779300     -4.133300
Case 590 699.534062 586.960449 0.000000 0.007596 0.000306 579.415283 0.423493 -260000.000000  1.989400     -4.512800
Case 591 770.254062 529.460449 0.000000 0.006898 0.000338 643.165283 0.382493 -260000.000000  1.791200     -4.032800
Case 592 642.074062 576.179199 0.000000 0.007028 0.000288 655.118408 0.374806 -260000.000000  1.929000     -4.464600
Case 593 712.794062 518.679199 0.000000 0.006330 0.000320 591.368408 0.415806 -260000.000000  1.894400     -4.272900
Case 594 677.434062 547.429199 0.000000 0.007377 0.000336 686.993408 0.436306 -260000.000000  1.861100     -4.425500
Case 595 748.154062 604.929199 0.000000 0.006679 0.000304 623.243408 0.395306 -260000.000000  1.819100     -4.087600
Case 596 659.754062 533.054199 0.000000 0.006854 0.000344 575.430908 0.385056 -260000.000000  1.981600     -4.463600
Case 597 730.474062 590.554199 0.000000 0.007552 0.000312 639.180908 0.426056 -260000.000000  1.872600     -4.313100
Case 598 695.114062 619.304199 0.000000 0.006505 0.000296 607.305908 0.446556 -260000.000000  1.887300     -4.320300
Case 599 765.834062 561.804199 0.000000 0.007203 0.000328 671.055908 0.405556 -260000.000000  1.779700     -4.080300
Case 600 650.914062 568.991699 0.000000 0.006592 0.000308 647.149658 0.369681 -260000.000000  1.890000     -4.334700
Case 601 721.634062 626.491699 0.000000 0.007290 0.000340 583.399658 0.410681 -260000.000000  1.902200     -4.272900
Case 602 686.274062 597.741699 0.000000 0.006941 0.000324 679.024658 0.431181 -260000.000000  1.825200     -4.293300
Case 603 756.994062 540.241699 0.000000 0.007639 0.000292 615.274658 0.390181 -260000.000000  1.898400     -4.272900
Case 604 668.594062 612.116699 0.000000 0.007465 0.000332 599.337158 0.379931 -260000.000000  1.958500     -4.435600
Case 605 739.314062 554.616699 0.000000 0.006767 0.000300 663.087158 0.420931 -260000.000000  1.811000     -4.176600
Case 606 703.954062 525.866699 0.000000 0.007116 0.000316 631.212158 0.441431 -260000.000000  1.907600     -4.423600
Case 607 774.674062 583.366699 0.000000 0.006418 0.000348 694.962158 0.400431 -260000.000000  1.677600     -3.843100
Case 608 639.864062 606.726074 0.000000 0.006396 0.000325 585.391846 0.427337 -260000.000000  1.941700     -4.438600
Case 609 710.584062 549.226074 0.000000 0.007094 0.000293 649.141846 0.386337 -260000.000000  1.874500     -4.291600
Case 610 675.224062 520.476074 0.000000 0.006745 0.000309 617.266846 0.406837 -260000.000000  1.935300     -4.439900
Case 611 745.944062 577.976074 0.000000 0.007443 0.000341 681.016846 0.447837 -260000.000000  1.794400     -4.202000
Case 612 657.544062 563.601074 0.000000 0.007617 0.000317 665.079346 0.417087 -260000.000000  1.924300     -4.539400