#Case *q0         *q1         *q2         *q3         *a0         *a1         *a2         *a3        *alfa0        *alfa1        *alfa2        *alfa3          *n        *vel          Delta radius    Delta length
Case 1 412.310000 -510.820000 1873.400000 -1872.400000 36.402000 -68.301000 254.320000 -255.570000 0.009481 -0.003841 -0.012971 0.025892 5.224800 -230000.000000                         4.282100       -11.831000
Case 2 391.694500 -485.279000 1779.730000 -1778.780000 34.581900 -64.885950 241.604000 -242.791500 0.009955 -0.004033 -0.012322 0.024597 5.486040 -230000.000000                         4.371700       -12.143000
Case 3 432.925500 -536.361000 1967.070000 -1966.020000 38.222100 -71.716050 267.036000 -268.348500 0.009007 -0.003649 -0.013620 0.027187 4.963560 -230000.000000                         4.193000       -11.584000
Case 4 381.386750 -498.049500 2013.905000 -1731.970000 37.312050 -73.423575 247.962000 -261.959250 0.010192 -0.003745 -0.012647 0.027834 5.616660 -230000.000000                         4.233000       -11.970000
Case 5 422.617750 -549.131500 1826.565000 -1919.210000 33.671850 -66.593475 273.394000 -236.402250 0.009244 -0.004129 -0.013944 0.025245 5.094180 -230000.000000                         5.059800       -12.758000
Case 6 402.002250 -523.590500 1920.235000 -2012.830000 39.132150 -63.178425 235.246000 -249.180750 0.008770 -0.003553 -0.013295 0.026539 4.832940 -230000.000000                         4.075200       -11.392000
Case 7 443.233250 -472.508500 1732.895000 -1825.590000 35.491950 -70.008525 260.678000 -274.737750 0.009718 -0.003937 -0.011998 0.023950 5.355420 -230000.000000                         3.873700       -11.455000
Case 8 376.232875 -466.123250 1943.652500 -1942.615000 34.126875 -74.277338 251.141000 -252.375375 0.010073 -0.003697 -0.014106 0.024274 5.159490 -230000.000000                         3.898200       -11.641000
Case 9 417.463875 -517.205250 1756.312500 -1755.375000 37.767075 -67.447238 276.573000 -277.932375 0.009125 -0.004081 -0.012809 0.026863 5.681970 -230000.000000                         4.438700       -11.998000
Case 10 396.848375 -542.746250 2037.322500 -1848.995000 35.946975 -64.032188 238.425000 -265.153875 0.008651 -0.003505 -0.012160 0.025568 5.420730 -230000.000000                         3.856100       -11.447000
Case 11 438.079375 -491.664250 1849.982500 -2036.235000 39.587175 -70.862288 263.857000 -239.596875 0.009599 -0.003889 -0.013457 0.028158 4.898250 -230000.000000                         4.979600       -12.438000
Case 12 386.540625 -529.975750 1803.147500 -1802.185000 36.857025 -72.569813 232.067000 -233.207625 0.008888 -0.004177 -0.012485 0.027510 5.290110 -230000.000000                         4.389100       -12.186000
Case 13 427.771625 -478.893750 1990.487500 -1989.425000 33.216825 -65.739713 257.499000 -258.764625 0.009836 -0.003793 -0.013782 0.024921 4.767630 -230000.000000                         4.010000       -11.519000
Case 14 407.156125 -504.434750 1709.477500 -1895.805000 38.677125 -62.324663 244.783000 -271.543125 0.010310 -0.003985 -0.013133 0.026216 5.028870 -230000.000000                         3.890400       -11.172000
Case 15 448.387125 -555.516750 1896.817500 -1708.565000 35.036925 -69.154763 270.215000 -245.986125 0.009362 -0.003601 -0.011836 0.023626 5.551350 -230000.000000                         4.821200       -12.612000
Case 16 373.655937 -507.627375 1838.273750 -1977.722500 36.174487 -71.289169 278.162500 -266.751188 0.008711 -0.003577 -0.013052 0.027996 5.388075 -230000.000000                         4.637500       -12.295000
Case 17 414.886937 -558.709375 2025.613750 -1790.482500 39.814687 -64.459069 252.730500 -241.194188 0.009659 -0.003961 -0.011755 0.025407 4.865595 -230000.000000                         4.699300       -12.084000
Case 18 394.271437 -533.168375 1744.603750 -1696.862500 34.354387 -67.874119 265.446500 -253.972688 0.010133 -0.003769 -0.012404 0.026701 5.126835 -230000.000000                         4.645000       -12.283000
Case 19 435.502437 -482.086375 1931.943750 -1884.102500 37.994587 -74.704219 240.014500 -279.529688 0.009185 -0.004153 -0.013701 0.024112 5.649315 -230000.000000                         3.264600       -10.699000
Case 20 383.963687 -545.938875 1885.108750 -1743.672500 38.904637 -69.581644 259.088500 -273.140438 0.010370 -0.003865 -0.012079 0.023465 4.996215 -230000.000000                         3.856100       -11.157000
Case 21 425.194687 -494.856875 1697.768750 -1930.912500 35.264437 -62.751544 233.656500 -247.583438 0.009422 -0.003481 -0.013376 0.026054 5.518695 -230000.000000                         4.191600       -11.911000
Case 22 404.579187 -469.315875 1978.778750 -2024.532500 37.084537 -66.166594 271.804500 -234.804938 0.008948 -0.004057 -0.014025 0.024759 5.257455 -230000.000000                         5.120600       -12.688000
Case 23 445.810187 -520.397875 1791.438750 -1837.292500 33.444337 -72.996694 246.372500 -260.361938 0.009896 -0.003673 -0.012728 0.027348 4.734975 -230000.000000                         3.845800       -11.477000
Case 24 378.809812 -514.012625 2002.196250 -1907.507500 34.809412 -70.435406 255.909500 -237.999563 0.010014 -0.003913 -0.013214 0.027672 5.584005 -230000.000000                         4.943300       -12.857000
Case 25 420.040812 -462.930625 1814.856250 -1720.267500 38.449612 -63.605306 230.477500 -263.556563 0.009066 -0.003529 -0.011917 0.025083 5.061525 -230000.000000                         3.706500       -11.006000
Case 26 399.425312 -488.471625 1908.526250 -1813.887500 32.989312 -67.020356 268.625500 -276.335063 0.008592 -0.004105 -0.012566 0.026377 4.800285 -230000.000000                         3.941800       -11.488000
Case 27 440.656312 -539.553625 1721.186250 -2001.127500 36.629512 -73.850456 243.193500 -250.778063 0.009540 -0.003721 -0.013863 0.023788 5.322765 -230000.000000                         3.805600       -11.419000
Case 28 389.117562 -475.701125 1768.021250 -1860.697500 39.359662 -68.727881 274.983500 -244.388813 0.008829 -0.003625 -0.012241 0.024436 4.930905 -230000.000000                         4.908100       -12.349000
Case 29 430.348562 -526.783125 1955.361250 -2047.937500 35.719462 -61.897781 249.551500 -269.945813 0.009777 -0.004009 -0.013538 0.027025 5.453385 -230000.000000                         4.084400       -11.634000
Case 30 409.733062 -552.324125 1861.691250 -1954.317500 37.539562 -65.312831 262.267500 -257.167313 0.010251 -0.003817 -0.014187 0.025730 5.714625 -230000.000000                         4.567500       -12.145000
Case 31 450.964062 -501.242125 2049.031250 -1767.077500 33.899362 -72.142931 236.835500 -231.610313 0.009303 -0.004201 -0.012890 0.028319 5.192145 -230000.000000                         4.523700       -12.547000
Case 32 372.367469 -480.490063 2043.176875 -1808.036250 38.563369 -62.538103 266.241250 -235.603594 0.009570 -0.003589 -0.013498 0.027429 5.698297 -230000.000000                         5.346100       -13.053000
Case 33 413.598469 -531.572063 1855.836875 -1995.276250 34.923169 -69.368203 240.809250 -261.160594 0.008622 -0.003973 -0.012201 0.024840 5.175817 -230000.000000                         3.688300       -11.317000
Case 34 392.982969 -557.113063 1949.506875 -1901.656250 36.743269 -72.783253 278.957250 -273.939094 0.009096 -0.003781 -0.012849 0.026135 4.914577 -230000.000000                         4.214100       -11.642000
Case 35 434.213969 -506.031063 1762.166875 -1714.416250 33.103069 -65.953153 253.525250 -248.382094 0.010044 -0.004165 -0.014146 0.023546 5.437057 -230000.000000                         4.186100       -11.996000
Case 36 382.675219 -518.801563 1715.331875 -1948.466250 35.833219 -64.245628 272.599250 -254.771344 0.009333 -0.003877 -0.011877 0.024193 4.783957 -230000.000000                         4.569800       -11.996000
Case 37 423.906219 -467.719563 1902.671875 -1761.226250 39.473419 -71.075728 247.167250 -280.328344 0.010281 -0.003493 -0.013174 0.026782 5.306437 -230000.000000                         3.759200       -11.110000
Case 38 403.290719 -493.260563 1809.001875 -1854.846250 34.013119 -74.490778 259.883250 -267.549844 0.009807 -0.004069 -0.013822 0.025487 5.567677 -230000.000000                         3.927400       -11.849000
Case 39 444.521719 -544.342563 1996.341875 -2042.086250 37.653319 -67.660678 234.451250 -241.992844 0.008859 -0.003685 -0.012525 0.028077 5.045197 -230000.000000                         4.345400       -11.869000
Case 40 377.521344 -537.957313 1785.584375 -1691.011250 39.928444 -61.684341 269.420250 -257.965969 0.009214 -0.003925 -0.013336 0.028400 5.241127 -230000.000000                         4.863100       -12.314000
Case 41 418.752344 -486.875313 1972.924375 -1878.251250 36.288244 -68.514441 243.988250 -232.408969 0.010162 -0.003541 -0.012039 0.025811 4.718647 -230000.000000                         4.607000       -12.092000
Case 42 398.136844 -461.334313 1691.914375 -1971.871250 38.108344 -71.929491 256.704250 -245.187469 0.009688 -0.004117 -0.012687 0.027106 4.979887 -230000.000000                         4.608900       -12.088000
Case 43 439.367844 -512.416313 1879.254375 -1784.631250 34.468144 -65.099391 231.272250 -270.744469 0.008740 -0.003733 -0.013984 0.024516 5.502367 -230000.000000                         3.339800       -10.928000
Case 44 387.829094 -499.645813 1926.089375 -2018.681250 35.378194 -63.391866 263.062250 -277.133719 0.009925 -0.003637 -0.011714 0.023869 5.110507 -230000.000000                         3.976400       -11.412000
Case 45 429.060094 -550.727813 1738.749375 -1831.441250 39.018394 -70.221966 237.630250 -251.576719 0.008977 -0.004021 -0.013012 0.026458 5.632987 -230000.000000                         4.133700       -11.752000
Case 46 408.444594 -525.186813 2019.759375 -1737.821250 33.558094 -73.637016 275.778250 -238.798219 0.009451 -0.003829 -0.013660 0.025164 5.371747 -230000.000000                         5.012100       -12.929000
Case 47 449.675594 -474.104813 1832.419375 -1925.061250 37.198294 -66.806916 250.346250 -264.355219 0.010399 -0.004213 -0.012363 0.027753 4.849267 -230000.000000                         4.141400       -11.519000
Case 48 374.944406 -534.764688 1914.380625 -1843.143750 37.880831 -66.380034 242.398750 -246.784781 0.009629 -0.004189 -0.013741 0.024031 5.077852 -230000.000000                         4.017700       -11.424000
Case 49 416.175406 -483.682688 1727.040625 -2030.383750 34.240631 -73.210134 267.830750 -272.341781 0.008681 -0.003805 -0.012444 0.026620 5.600332 -230000.000000                         4.183500       -12.145000
Case 50 395.559906 -509.223688 2008.050625 -1936.763750 39.700931 -69.795084 229.682750 -259.563281 0.009155 -0.003997 -0.011796 0.025326 5.339092 -230000.000000                         3.742700       -11.149000
Case 51 436.790906 -560.305688 1820.710625 -1749.523750 36.060731 -62.964984 255.114750 -234.006281 0.010103 -0.003613 -0.013093 0.027915 4.816612 -230000.000000                         5.040100       -12.547000
Case 52 385.252156 -470.912188 1867.545625 -1889.953750 33.330581 -68.087559 236.040750 -240.395531 0.009392 -0.003709 -0.012768 0.027268 5.469712 -230000.000000                         4.379900       -12.457000
Case 53 426.483156 -521.994188 2054.885625 -1702.713750 36.970781 -74.917659 261.472750 -265.952531 0.010340 -0.004093 -0.014065 0.024678 4.947232 -230000.000000                         3.838700       -11.239000
Case 54 405.867656 -547.535188 1773.875625 -1796.333750 35.150681 -71.502609 248.756750 -278.731031 0.009866 -0.003517 -0.013417 0.025973 5.208472 -230000.000000                         3.589500       -11.126000
Case 55 447.098656 -496.453188 1961.215625 -1983.573750 38.790881 -64.672509 274.188750 -253.174031 0.008918 -0.003901 -0.012120 0.023384 5.730952 -230000.000000                         4.823400       -12.389000
Case 56 380.098281 -490.067938 1750.458125 -1772.928750 36.515756 -65.526272 239.219750 -269.147156 0.009036 -0.003661 -0.013903 0.023707 4.881922 -230000.000000                         3.386300       -10.597000
Case 57 421.329281 -541.149938 1937.798125 -1960.168750 32.875556 -72.356372 264.651750 -243.590156 0.009985 -0.004045 -0.012606 0.026297 5.404402 -230000.000000                         4.798200       -12.808000
Case 58 400.713781 -515.608938 1844.128125 -2053.788750 38.335856 -68.941322 251.935750 -230.811656 0.009511 -0.003469 -0.011958 0.025002 5.665642 -230000.000000                         5.041900       -12.732000
Case 59 441.944781 -464.526938 2031.468125 -1866.548750 34.695656 -62.111222 277.367750 -256.368656 0.008562 -0.003853 -0.013255 0.027591 5.143162 -230000.000000                         4.894000       -12.504000
Case 60 390.406031 -553.920438 1984.633125 -2006.978750 33.785606 -67.233797 245.577750 -262.757906 0.009748 -0.004141 -0.012930 0.028238 5.535022 -230000.000000                         4.157600       -12.058000
Case 61 431.637031 -502.838438 1797.293125 -1819.738750 37.425806 -74.063897 271.009750 -237.200906 0.008799 -0.003757 -0.014228 0.025649 5.012542 -230000.000000                         4.885500       -12.438000
Case 62 411.021531 -477.297438 1890.963125 -1726.118750 35.605706 -70.648847 232.861750 -249.979406 0.009274 -0.003949 -0.013579 0.026944 4.751302 -230000.000000                         3.744800       -11.209000
Case 63 452.252531 -528.379438 1703.623125 -1913.358750 39.245906 -63.818747 258.293750 -275.536406 0.010222 -0.003565 -0.012282 0.024355 5.273782 -230000.000000                         4.044200       -11.389000
Case 64 371.723234 -494.058719 1882.181562 -1916.284375 39.871566 -72.463092 272.201875 -263.955891 0.009851 -0.003811 -0.011978 0.025204 5.151326 -230000.000000                         4.454100       -11.856000
Case 65 412.954234 -545.140719 1694.841562 -1729.044375 36.231366 -65.632992 246.769875 -238.398891 0.008903 -0.004195 -0.013275 0.027793 5.673806 -230000.000000                         4.816800       -12.633000
Case 66 392.338734 -519.599719 1975.851562 -1822.664375 38.051466 -62.217942 259.485875 -251.177391 0.009377 -0.003619 -0.013924 0.023910 5.412566 -230000.000000                         4.472200       -11.927000
Case 67 433.569734 -468.517719 1788.511562 -2009.904375 34.411266 -69.048042 234.053875 -276.734391 0.010325 -0.004003 -0.012626 0.026499 4.890086 -230000.000000                         3.400600       -10.811000
Case 68 382.030984 -557.911219 1835.346562 -1869.474375 35.321316 -74.170617 265.843875 -270.345141 0.009140 -0.004099 -0.013599 0.027146 5.281946 -230000.000000                         4.073800       -11.765000
Case 69 423.261984 -506.829219 2022.686562 -2056.714375 38.961516 -67.340517 240.411875 -244.788141 0.010088 -0.003715 -0.012302 0.024557 4.759466 -230000.000000                         4.149600       -11.493000
Case 70 402.646484 -481.288219 1741.676562 -1963.094375 33.501216 -63.925467 278.559875 -232.009641 0.009614 -0.003907 -0.012951 0.028441 5.020706 -230000.000000                         5.542300       -13.316000
Case 71 443.877484 -532.370219 1929.016562 -1775.854375 37.141416 -70.755567 253.127875 -257.566641 0.008666 -0.003523 -0.014248 0.025852 5.543186 -230000.000000                         4.127300       -11.786000
Case 72 376.877109 -525.984969 1765.094062 -1986.499375 38.506491 -73.316855 262.664875 -241.593516 0.009259 -0.004051 -0.011816 0.025528 4.824776 -230000.000000                         4.692000       -12.141000
Case 73 418.108109 -474.902969 1952.434062 -1799.259375 34.866291 -66.486755 237.232875 -267.150516 0.010207 -0.003667 -0.013113 0.028117 5.347256 -230000.000000                         3.911000       -11.576000
Case 74 397.492609 -500.443969 1858.764062 -1705.639375 36.686391 -63.071705 275.380875 -279.929016 0.009733 -0.003859 -0.013761 0.024233 5.608496 -230000.000000                         4.171000       -11.666000
Case 75 438.723609 -551.525969 2046.104062 -1892.879375 33.046191 -69.901805 249.948875 -254.372016 0.008785 -0.003475 -0.012464 0.026822 5.086016 -230000.000000                         4.159400       -12.014000
Case 76 387.184859 -462.132469 1999.269062 -1752.449375 35.776341 -75.024380 269.022875 -247.982766 0.009496 -0.003763 -0.013437 0.026175 5.739116 -230000.000000                         4.791600       -12.711000
Case 77 428.415859 -513.214469 1811.929062 -1939.689375 39.416541 -68.194280 243.590875 -273.539766 0.008548 -0.004147 -0.012140 0.023586 5.216636 -230000.000000                         3.527300       -10.785000
Case 78 407.800359 -538.755469 1905.599062 -2033.309375 33.956241 -64.779230 256.306875 -260.761266 0.009022 -0.003571 -0.012789 0.027470 4.955396 -230000.000000                         4.277500       -11.851000
Case 79 449.031359 -487.673469 1718.259062 -1846.069375 37.596441 -71.609330 230.874875 -235.204266 0.009970 -0.003955 -0.014086 0.024881 5.477876 -230000.000000                         4.114700       -11.795000
Case 80 374.300172 -548.333344 2034.395312 -1927.986875 36.458878 -68.621161 235.643375 -275.137078 0.009792 -0.003979 -0.012708 0.026984 5.510531 -230000.000000                         3.657300       -11.237000
Case 81 415.531172 -497.251344 1847.055312 -1740.746875 32.818678 -61.791061 261.075375 -249.580078 0.008844 -0.003595 -0.014005 0.024395 4.988051 -230000.000000                         4.360400       -11.976000
Case 82 394.915672 -471.710344 1940.725312 -1834.366875 38.278978 -65.206111 248.359375 -236.801578 0.009318 -0.004171 -0.013356 0.028279 4.726811 -230000.000000                         4.741000       -12.147000
Case 83 436.146672 -522.792344 1753.385312 -2021.606875 34.638778 -72.036211 273.791375 -262.358578 0.010266 -0.003787 -0.012059 0.025690 5.249291 -230000.000000                         4.522600       -12.196000
Case 84 384.607922 -510.021844 1706.550312 -1787.556875 33.728728 -70.328686 242.001375 -255.969328 0.009081 -0.003499 -0.013680 0.025042 4.857431 -230000.000000                         3.661500       -11.246000
Case 85 425.838922 -561.103844 1893.890312 -1974.796875 37.368928 -63.498586 267.433375 -230.412328 0.010029 -0.003883 -0.012383 0.027632 5.379911 -230000.000000                         5.468900       -13.177000
Case 86 405.223422 -535.562844 1800.220312 -1881.176875 35.548828 -66.913636 229.285375 -243.190828 0.009555 -0.003691 -0.011735 0.023748 5.641151 -230000.000000                         4.055400       -11.890000
Case 87 446.454422 -484.480844 1987.560312 -1693.936875 39.189028 -73.743736 254.717375 -268.747828 0.008607 -0.004075 -0.013032 0.026337 5.118671 -230000.000000                         3.865000       -11.248000
Case 88 379.454047 -478.095594 1823.637812 -2045.011875 37.823953 -69.474923 245.180375 -252.774703 0.009436 -0.003547 -0.012870 0.026013 5.445221 -230000.000000                         4.245300       -11.833000
Case 89 420.685047 -529.177594 2010.977812 -1857.771875 34.183753 -62.644823 270.612375 -278.331703 0.010385 -0.003931 -0.014167 0.023424 4.922741 -230000.000000                         3.833300       -11.211000
Case 90 400.069547 -554.718594 1729.967812 -1764.151875 39.644053 -66.059873 232.464375 -265.553203 0.009911 -0.003739 -0.013518 0.027308 5.183981 -230000.000000                         3.810800       -11.128000
Case 91 441.300547 -503.636594 1917.307812 -1951.391875 36.003853 -72.889973 257.896375 -239.996203 0.008962 -0.004123 -0.012221 0.024719 5.706461 -230000.000000                         4.709700       -12.632000
Case 92 389.761797 -516.407094 1964.142812 -1717.341875 33.273703 -71.182448 238.822375 -233.606953 0.009673 -0.004027 -0.013842 0.025366 5.053361 -230000.000000                         4.183700       -12.051000
Case 93 430.992797 -465.325094 1776.802812 -1904.581875 36.913903 -64.352348 264.254375 -259.163953 0.008725 -0.003643 -0.012545 0.027955 5.575841 -230000.000000                         4.737500       -12.386000
Case 94 410.377297 -490.866094 2057.812812 -1998.201875 35.093803 -67.767398 251.538375 -271.942453 0.009199 -0.004219 -0.011897 0.024071 5.314601 -230000.000000                         3.740900       -11.317000
Case 95 451.608297 -541.948094 1870.472812 -1810.961875 38.734003 -74.597498 276.970375 -246.385453 0.010148 -0.003835 -0.013194 0.026661 4.792121 -230000.000000                         4.896500       -12.348000
Case 96 373.011703 -521.196031 1852.909687 -1758.300625 34.297509 -63.285145 249.154125 -245.586797 0.008992 -0.003943 -0.012505 0.026256 5.330929 -230000.000000                         4.547500       -12.279000
Case 97 414.242703 -470.114031 2040.249687 -1945.540625 37.937709 -70.115245 274.586125 -271.143797 0.009940 -0.003559 -0.013802 0.023667 4.808449 -230000.000000                         4.008600       -11.335000
Case 98 393.627203 -495.655031 1759.239687 -2039.160625 36.117609 -73.530295 236.438125 -258.365297 0.010414 -0.004135 -0.013153 0.027551 5.069689 -230000.000000                         3.815700       -11.394000
Case 99 434.858203 -546.737031 1946.579687 -1851.920625 39.757809 -66.700195 261.870125 -232.808297 0.009466 -0.003751 -0.011856 0.024962 5.592169 -230000.000000                         5.220800       -12.818000
Case 100 383.319453 -482.884531 1899.744687 -1992.350625 37.027659 -61.577620 230.080125 -239.197547 0.010177 -0.003463 -0.014126 0.025609 5.200309 -230000.000000                         4.246200       -11.724000
Case 101 424.550453 -533.966531 1712.404687 -1805.110625 33.387459 -68.407720 255.512125 -264.754547 0.009229 -0.003847 -0.012829 0.028198 5.722789 -230000.000000                         4.334700       -12.410000
Case 102 403.934953 -559.507531 1993.414687 -1711.490625 38.847759 -71.822770 242.796125 -277.533047 0.008755 -0.003655 -0.012181 0.024314 5.461549 -230000.000000                         3.518600       -10.913000
Case 103 445.165953 -508.425531 1806.074687 -1898.730625 35.207559 -64.992670 268.228125 -251.976047 0.009703 -0.004039 -0.013478 0.026903 4.939069 -230000.000000                         4.696200       -12.201000
Case 104 378.165578 -502.040281 1969.997187 -1828.515625 32.932434 -64.138908 233.259125 -274.338422 0.010296 -0.003511 -0.012343 0.026580 5.657479 -230000.000000                         3.729000       -11.614000
Case 105 419.396578 -553.122281 1782.657187 -2015.755625 36.572634 -70.969008 258.691125 -248.781422 0.009348 -0.003895 -0.013640 0.023991 5.134999 -230000.000000                         4.243400       -11.772000
Case 106 398.781078 -527.581281 1876.327187 -1922.135625 34.752534 -74.384058 245.975125 -236.002922 0.008874 -0.003703 -0.012991 0.027874 4.873759 -230000.000000                         4.469300       -12.227000
Case 107 440.012078 -476.499281 1688.987187 -1734.895625 38.392734 -67.553958 271.407125 -261.559922 0.009822 -0.004087 -0.011694 0.025285 5.396239 -230000.000000                         4.632700       -12.124000
Case 108 388.473328 -540.351781 1735.822187 -1875.325625 37.482684 -62.431383 252.333125 -267.949172 0.008637 -0.003991 -0.013964 0.024638 4.743139 -230000.000000                         3.726800       -10.955000
Case 109 429.704328 -489.269781 1923.162187 -1688.085625 33.842484 -69.261483 277.765125 -242.392172 0.009585 -0.003607 -0.012667 0.027227 5.265619 -230000.000000                         5.201000       -13.019000
Case 110 409.088828 -463.728781 1829.492187 -1781.705625 39.302784 -72.676533 239.617125 -255.170672 0.010059 -0.004183 -0.012018 0.023343 5.526859 -230000.000000                         3.879900       -11.388000
Case 111 450.319828 -514.810781 2016.832187 -1968.945625 35.662584 -65.846433 265.049125 -280.727672 0.009111 -0.003799 -0.013316 0.025932 5.004379 -230000.000000                         3.871200       -11.265000
Case 112 375.588641 -466.921406 1724.113437 -1699.788125 34.980047 -67.127077 260.280625 -231.210984 0.008814 -0.003823 -0.012100 0.025771 4.906414 -230000.000000                         5.018600       -12.635000
Case 113 416.819641 -518.003406 1911.453437 -1887.028125 38.620247 -73.957177 234.848625 -256.767984 0.009762 -0.004207 -0.013397 0.028360 5.428894 -230000.000000                         3.969100       -11.572000
Case 114 396.204141 -543.544406 1817.783437 -1980.648125 33.159947 -70.542127 272.996625 -269.546484 0.010236 -0.003631 -0.014045 0.024476 5.690134 -230000.000000                         4.213700       -12.126000
Case 115 437.435141 -492.462406 2005.123437 -1793.408125 36.800147 -63.712027 247.564625 -243.989484 0.009288 -0.004015 -0.012748 0.027065 5.167654 -230000.000000                         4.608700       -12.133000
Case 116 385.896391 -530.773906 2051.958437 -2027.458125 39.530297 -65.419552 279.354625 -250.378734 0.009999 -0.004111 -0.013072 0.026418 5.559514 -230000.000000                         5.137300       -12.707000
Case 117 427.127391 -479.691906 1864.618437 -1840.218125 35.890097 -72.249652 253.922625 -275.935734 0.009051 -0.003727 -0.011775 0.023829 5.037034 -230000.000000                         3.586300       -11.022000
Case 118 406.511891 -505.232906 1958.288437 -1746.598125 37.710197 -68.834602 266.638625 -263.157234 0.008577 -0.003919 -0.012424 0.027713 4.775794 -230000.000000                         4.383800       -11.762000
Case 119 447.742891 -556.314906 1770.948437 -1933.838125 34.069997 -62.004502 241.206625 -237.600234 0.009525 -0.003535 -0.013721 0.025123 5.298274 -230000.000000                         4.454600       -12.156000
Case 120 380.742516 -549.929656 1934.870937 -1816.813125 36.345122 -67.980839 276.175625 -259.962609 0.010355 -0.004063 -0.012262 0.024800 4.971724 -230000.000000                         4.566400       -12.018000
Case 121 421.973516 -498.847656 1747.530937 -2004.053125 39.985322 -74.810939 250.743625 -234.405609 0.009407 -0.003679 -0.013559 0.027389 5.494204 -230000.000000                         4.857800       -12.489000
Case 122 401.358016 -473.306656 2028.540937 -1910.433125 34.525022 -71.395889 263.459625 -247.184109 0.008933 -0.003871 -0.014207 0.023505 5.232964 -230000.000000                         4.255500       -11.972000
Case 123 442.589016 -524.388656 1841.200937 -1723.193125 38.165222 -64.565789 238.027625 -272.741109 0.009881 -0.003487 -0.012910 0.026094 4.710484 -230000.000000                         3.620400       -10.807000
Case 124 391.050266 -486.077156 1794.365937 -1957.243125 39.075272 -66.273314 257.101625 -279.130359 0.008696 -0.003775 -0.013234 0.026742 5.363584 -230000.000000                         3.951300       -11.329000
Case 125 432.281266 -537.159156 1981.705937 -1770.003125 35.435072 -73.103414 231.669625 -253.573359 0.009644 -0.004159 -0.011937 0.024152 4.841104 -230000.000000                         3.523900       -11.000000
Case 126 411.665766 -511.618156 1700.695937 -1863.623125 37.255172 -69.688364 269.817625 -240.794859 0.010118 -0.003583 -0.012586 0.028036 5.102344 -230000.000000                         5.153000       -12.748000
Case 127 452.896766 -460.536156 1888.035937 -2050.863125 33.614972 -62.858264 244.385625 -266.351859 0.009170 -0.003967 -0.013883 0.025447 5.624824 -230000.000000                         3.836700       -11.634000
Case 128 371.401117 -460.137078 1801.683906 -1844.606563 36.771708 -70.382046 263.260937 -272.541445 0.008599 -0.004150 -0.013103 0.025265 4.779876 -230000.000000                         3.788600       -11.114000
Case 129 412.632117 -511.219078 1989.023906 -2031.846563 33.131508 -63.551946 237.828937 -246.984445 0.009548 -0.003766 -0.011806 0.027854 5.302356 -230000.000000                         4.420600       -12.295000
Case 130 392.016617 -536.760078 1708.013906 -1938.226563 38.591808 -66.966996 275.976937 -234.205945 0.010022 -0.003958 -0.012454 0.023970 5.563596 -230000.000000                         5.356100       -12.964000
Case 131 433.247617 -485.678078 1895.353906 -1750.986563 34.951608 -73.797096 250.544937 -259.762945 0.009074 -0.003574 -0.013751 0.026560 5.041116 -230000.000000                         3.881700       -11.533000
Case 132 381.708867 -523.989578 1942.188906 -1891.416563 34.041558 -68.674521 269.618937 -266.152195 0.010259 -0.003670 -0.012130 0.025912 5.694216 -230000.000000                         4.526000       -12.386000
Case 133 422.939867 -472.907578 1754.848906 -1704.176563 37.681758 -61.844421 244.186937 -240.595195 0.009311 -0.004054 -0.013427 0.023323 5.171736 -230000.000000                         4.287800       -11.716000
Case 134 402.324367 -498.448578 2035.858906 -1797.796563 35.861658 -65.259471 256.902937 -253.373695 0.008836 -0.003478 -0.014076 0.027207 4.910496 -230000.000000                         4.380800       -11.842000
Case 135 443.555367 -549.530578 1848.518906 -1985.036563 39.501858 -72.089571 231.470937 -278.930695 0.009785 -0.003862 -0.012778 0.024618 5.432976 -230000.000000                         3.339500       -10.630000
Case 136 376.554992 -555.915828 2059.276406 -1774.391563 38.136783 -71.235809 272.797937 -243.789820 0.010140 -0.003718 -0.013265 0.024941 5.106426 -230000.000000                         4.882100       -12.383000
Case 137 417.785992 -504.833828 1871.936406 -1961.631563 34.496583 -64.405709 247.365937 -269.346820 0.009192 -0.004102 -0.011968 0.027530 5.628906 -230000.000000                         4.129200       -11.944000
Case 138 397.170492 -479.292828 1965.606406 -2055.251563 39.956883 -67.820759 260.081937 -256.568320 0.008718 -0.003526 -0.012616 0.023647 5.367666 -230000.000000                         4.306400       -11.722000
Case 139 438.401492 -530.374828 1778.266406 -1868.011563 36.316683 -74.650859 234.649937 -231.011320 0.009666 -0.003910 -0.013913 0.026236 4.845186 -230000.000000                         4.156700       -11.764000
Case 140 386.862742 -492.063328 1731.431406 -2008.441563 33.586533 -69.528284 266.439937 -237.400570 0.008955 -0.004198 -0.012292 0.026883 5.237046 -230000.000000                         5.059400       -12.919000
Case 141 428.093742 -543.145328 1918.771406 -1821.201563 37.226733 -62.698184 241.007937 -262.957570 0.009903 -0.003814 -0.013589 0.024294 4.714566 -230000.000000                         3.678700       -10.902000
Case 142 407.478242 -517.604328 1825.101406 -1727.581563 35.406633 -66.113234 279.155937 -275.736070 0.010377 -0.004006 -0.014238 0.028178 4.975806 -230000.000000                         4.410400       -11.848000
Case 143 448.709242 -466.522328 2012.441406 -1914.821563 39.046833 -72.943334 253.723937 -250.179070 0.009429 -0.003622 -0.012941 0.025589 5.498286 -230000.000000                         4.423800       -11.998000
Case 144 373.978055 -514.411703 1743.140156 -1809.499063 39.729370 -74.223977 245.776437 -261.360258 0.008659 -0.003646 -0.014157 0.026074 5.465631 -230000.000000                         3.854000       -11.341000
Case 145 415.209055 -463.329703 1930.480156 -1996.739063 36.089170 -67.393877 271.208437 -235.803258 0.009607 -0.004030 -0.012860 0.023485 4.943151 -230000.000000                         4.937800       -12.467000
Case 146 394.593555 -488.870703 1836.810156 -1903.119063 37.909270 -63.978827 233.060437 -248.581758 0.010081 -0.003838 -0.012211 0.027369 5.204391 -230000.000000                         4.300700       -11.782000
Case 147 435.824555 -539.952703 2024.150156 -1715.879063 34.269070 -70.808927 258.492437 -274.138758 0.009133 -0.004222 -0.013508 0.024779 5.726871 -230000.000000                         3.783100       -11.659000
Case 148 384.285805 -476.100203 1977.315156 -1949.929063 35.179120 -72.516452 239.418437 -280.528008 0.010318 -0.003934 -0.012535 0.025427 5.073771 -230000.000000                         3.366800       -10.810000
Case 149 425.516805 -527.182203 1789.975156 -1762.689063 38.819320 -65.686352 264.850437 -254.971008 0.009370 -0.003550 -0.013832 0.028016 5.596251 -230000.000000                         4.821300       -12.390000
Case 150 404.901305 -552.723203 1883.645156 -1856.309063 33.359020 -62.271302 252.134437 -242.192508 0.008896 -0.004126 -0.013184 0.024132 5.335011 -230000.000000                         4.456000       -12.218000
Case 151 446.132305 -501.641203 1696.305156 -2043.549063 36.999220 -69.101402 277.566437 -267.749508 0.009844 -0.003742 -0.011887 0.026721 4.812531 -230000.000000                         4.514700       -11.920000
Case 152 379.131930 -508.026453 1907.062656 -1692.474063 38.364295 -75.077740 236.239437 -232.608633 0.009962 -0.003886 -0.013994 0.027045 5.530941 -230000.000000                         4.487000       -12.249000
Case 153 420.362930 -559.108453 1719.722656 -1879.714063 34.724095 -68.247640 261.671437 -258.165633 0.009014 -0.003502 -0.012697 0.024456 5.008461 -230000.000000                         4.178000       -11.738000
Case 154 399.747430 -533.567453 2000.732656 -1973.334063 36.544195 -64.832590 248.955437 -270.944133 0.008540 -0.004078 -0.012049 0.028340 4.747221 -230000.000000                         3.939600       -11.281000
Case 155 440.978430 -482.485453 1813.392656 -1786.094063 32.903995 -71.662690 274.387437 -245.387133 0.009488 -0.003694 -0.013346 0.025750 5.269701 -230000.000000                         4.859100       -12.756000
Case 156 389.439680 -546.337953 1860.227656 -2020.144063 35.634145 -73.370215 242.597437 -251.776383 0.008777 -0.003598 -0.012373 0.025103 4.877841 -230000.000000                         3.827200       -11.386000
Case 157 430.670680 -495.255953 2047.567656 -1832.904063 39.274345 -66.540115 268.029437 -277.333383 0.009725 -0.003982 -0.013670 0.027692 5.400321 -230000.000000                         4.298800       -11.701000
Case 158 410.055180 -469.714953 1766.557656 -1739.284063 33.814045 -63.125065 229.881437 -264.554883 0.010199 -0.003790 -0.013022 0.023809 5.661561 -230000.000000                         3.602400       -11.339000
Case 159 451.286180 -520.796953 1953.897656 -1926.524063 37.454245 -69.955165 255.313437 -238.997883 0.009251 -0.004174 -0.011725 0.026398 5.139081 -230000.000000                         4.796800       -12.371000
Case 160 372.689586 -541.549016 1959.752031 -1967.482813 34.610339 -65.472912 232.265687 -239.796539 0.009518 -0.003610 -0.013630 0.026802 5.645233 -230000.000000                         4.358500       -12.297000
Case 161 413.920586 -490.467016 1772.412031 -1780.242813 38.250539 -72.303012 257.697687 -265.353539 0.008570 -0.003994 -0.012333 0.024213 5.122753 -230000.000000                         3.887200       -11.302000
Case 162 393.305086 -464.926016 2053.422031 -1686.622813 32.790239 -68.887962 244.981687 -278.132039 0.009044 -0.003802 -0.011684 0.028097 4.861513 -230000.000000                         3.625900       -11.259000
Case 163 434.536086 -516.008016 1866.082031 -1873.862813 36.430439 -62.057862 270.413687 -252.575039 0.009992 -0.004186 -0.012981 0.025508 5.383993 -230000.000000                         4.835700       -12.388000
Case 164 382.997336 -503.237516 1819.247031 -1733.432813 39.160589 -67.180437 251.339687 -246.185789 0.009281 -0.003898 -0.012657 0.024860 4.730893 -230000.000000                         4.307900       -11.641000
Case 165 424.228336 -554.319516 2006.587031 -1920.672813 35.520389 -74.010537 276.771687 -271.742789 0.010229 -0.003514 -0.013954 0.027450 5.253373 -230000.000000                         4.368800       -11.981000
Case 166 403.612836 -528.778516 1725.577031 -2014.292813 37.340489 -70.595487 238.623687 -258.964289 0.009755 -0.004090 -0.013305 0.023566 5.514613 -230000.000000                         3.679600       -11.220000
Case 167 444.843836 -477.696516 1912.917031 -1827.052813 33.700289 -63.765387 264.055687 -233.407289 0.008807 -0.003706 -0.012008 0.026155 4.992133 -230000.000000                         5.146900       -12.829000
Case 168 377.843461 -484.081766 1702.159531 -1897.267813 35.975414 -66.326674 248.160687 -262.158914 0.009162 -0.003850 -0.013792 0.026479 5.318683 -230000.000000                         4.018300       -11.587000
Case 169 419.074461 -535.163766 1889.499531 -1710.027813 39.615614 -73.156774 273.592687 -236.601914 0.010110 -0.003466 -0.012495 0.023889 4.796203 -230000.000000                         4.981000       -12.426000
Case 170 398.458961 -560.704766 1795.829531 -1803.647813 34.155314 -69.741724 235.444687 -249.380414 0.009636 -0.004042 -0.011846 0.027773 5.057443 -230000.000000                         4.097100       -11.870000
Case 171 439.689961 -509.622766 1983.169531 -1990.887813 37.795514 -62.911624 260.876687 -274.937414 0.008688 -0.003658 -0.013143 0.025184 5.579923 -230000.000000                         4.093100       -11.573000
Case 172 388.151211 -522.393266 2030.004531 -1850.457813 38.705564 -68.034199 229.086687 -268.548164 0.009873 -0.003562 -0.012819 0.025831 5.188063 -230000.000000                         3.582600       -10.901000
Case 173 429.382211 -471.311266 1842.664531 -2037.697813 35.065364 -74.864299 254.518687 -242.991164 0.008925 -0.003946 -0.014116 0.028421 5.710543 -230000.000000                         4.673500       -12.800000
Case 174 408.766711 -496.852266 1936.334531 -1944.077813 36.885464 -71.449249 241.802687 -230.212664 0.009399 -0.003754 -0.013468 0.024537 5.449303 -230000.000000                         4.511600       -12.245000
Case 175 449.997711 -547.934266 1748.994531 -1756.837813 33.245264 -64.619149 267.234687 -255.769664 0.010348 -0.004138 -0.012170 0.027126 4.926823 -230000.000000                         4.659600       -12.252000
Case 176 375.266523 -487.274391 1994.878281 -2049.400313 34.382827 -61.630980 275.182187 -254.172352 0.009696 -0.004162 -0.013549 0.024699 5.024788 -230000.000000                         4.667500       -12.186000
Case 177 416.497523 -538.356391 1807.538281 -1862.160313 38.023027 -68.461080 249.750187 -279.729352 0.008748 -0.003778 -0.012252 0.027288 5.547268 -230000.000000                         3.891900       -11.417000
Case 178 395.882023 -512.815391 1901.208281 -1768.540313 36.202927 -71.876130 262.466187 -266.950852 0.009222 -0.003970 -0.012900 0.023404 5.286028 -230000.000000                         3.885800       -11.433000
Case 179 437.113023 -461.733391 1713.868281 -1955.780313 39.843127 -65.046030 237.034187 -241.393852 0.010170 -0.003586 -0.014197 0.025993 4.763548 -230000.000000                         4.226500       -11.542000
Case 180 385.574273 -551.126891 1760.703281 -1721.730313 37.112977 -63.338505 256.108187 -235.004602 0.009459 -0.003682 -0.011927 0.026640 5.416648 -230000.000000                         5.129600       -12.772000
Case 181 426.805273 -500.044891 1948.043281 -1908.970313 33.472777 -70.168605 230.676187 -260.561602 0.010407 -0.004066 -0.013224 0.024051 4.894168 -230000.000000                         3.365200       -10.870000
Case 182 406.189773 -474.503891 1854.373281 -2002.590313 38.933077 -73.583655 268.824187 -273.340102 0.009933 -0.003490 -0.013873 0.027935 5.155408 -230000.000000                         4.242700       -11.659000
Case 183 447.420773 -525.585891 2041.713281 -1815.350313 35.292877 -66.753555 243.392187 -247.783102 0.008985 -0.003874 -0.012576 0.025346 5.677888 -230000.000000                         4.311900       -12.175000
Case 184 380.420398 -531.971141 1830.955781 -1932.375313 33.017752 -62.484743 259.287187 -276.534727 0.009103 -0.003730 -0.013386 0.025669 4.959478 -230000.000000                         3.821200       -11.329000
Case 185 421.651398 -480.889141 2018.295781 -1745.135313 36.657952 -69.314843 233.855187 -250.977727 0.010051 -0.004114 -0.012089 0.028259 5.481958 -230000.000000                         4.257300       -12.002000
Case 186 401.035898 -506.430141 1737.285781 -1838.755313 34.837852 -72.729893 272.003187 -238.199227 0.009577 -0.003538 -0.012738 0.024375 5.743198 -230000.000000                         5.079900       -13.029000
Case 187 442.266898 -557.512141 1924.625781 -2025.995313 38.478052 -65.899793 246.571187 -263.756227 0.008629 -0.003922 -0.014035 0.026964 5.220718 -230000.000000                         3.971200       -11.368000
Case 188 390.728148 -468.118641 1877.790781 -1791.945313 37.568002 -64.192268 278.361187 -257.366977 0.009814 -0.004210 -0.011765 0.026317 5.612578 -230000.000000                         4.998200       -12.624000
Case 189 431.959148 -519.200641 1690.450781 -1979.185313 33.927802 -71.022368 252.929187 -231.809977 0.008866 -0.003826 -0.013062 0.023728 5.090098 -230000.000000                         4.513400       -12.304000
Case 190 411.343648 -544.741641 1971.460781 -1885.565313 39.388102 -74.437418 265.645187 -244.588477 0.009340 -0.004018 -0.013711 0.027611 4.828858 -230000.000000                         4.725600       -12.150000
Case 191 452.574648 -493.659641 1784.120781 -1698.325313 35.747902 -67.607318 240.213187 -270.145477 0.010288 -0.003634 -0.012414 0.025022 5.351338 -230000.000000                         3.730100       -11.274000
Case 192 372.045352 -527.980359 1980.242344 -1707.102188 36.146048 -69.421563 252.531812 -256.168992 0.009918 -0.003784 -0.012799 0.024577 5.212554 -230000.000000                         4.121500       -11.675000
Case 193 413.276352 -476.898359 1792.902344 -1894.342188 39.786248 -62.591463 277.963812 -230.611992 0.008970 -0.004168 -0.014096 0.027166 5.735034 -230000.000000                         5.635000       -13.351000
Case 194 392.660852 -502.439359 1886.572344 -1987.962188 34.325948 -66.006513 239.815812 -243.390492 0.009444 -0.003592 -0.013447 0.025872 5.473794 -230000.000000                         4.308600       -12.150000
Case 195 433.891852 -553.521359 1699.232344 -1800.722188 37.966148 -72.836613 265.247812 -268.947492 0.010392 -0.003976 -0.012150 0.028461 4.951314 -230000.000000                         4.345500       -11.773000
Case 196 382.353102 -464.127859 1746.067344 -2034.772188 38.876198 -71.129088 233.457812 -275.336742 0.009207 -0.004072 -0.013772 0.027814 5.343174 -230000.000000                         3.522700       -10.890000
Case 197 423.584102 -515.209859 1933.407344 -1847.532188 35.235998 -64.298988 258.889812 -249.779742 0.010155 -0.003688 -0.012474 0.025224 4.820694 -230000.000000                         4.492600       -11.945000
Case 198 402.968602 -540.750859 1839.737344 -1753.912188 37.056098 -67.714038 246.173812 -237.001242 0.009681 -0.003880 -0.011826 0.026519 5.081934 -230000.000000                         4.700800       -12.257000
Case 199 444.199602 -489.668859 2027.077344 -1941.152188 33.415898 -74.544138 271.605812 -262.558242 0.008733 -0.003496 -0.013123 0.023930 5.604414 -230000.000000                         4.193400       -12.251000
Case 200 377.199227 -496.054109 1863.154844 -1824.127188 34.780973 -68.567801 230.278812 -233.806617 0.009325 -0.004120 -0.012961 0.023606 4.755384 -230000.000000                         3.852000       -11.379000
Case 201 418.430227 -547.136109 2050.494844 -2011.367188 38.421173 -61.737701 255.710812 -259.363617 0.010273 -0.003736 -0.014258 0.026195 5.277864 -230000.000000                         4.384900       -11.780000
Case 202 397.814727 -521.595109 1769.484844 -1917.747188 32.960873 -65.152751 242.994812 -272.142117 0.009799 -0.003928 -0.013609 0.024901 5.539104 -230000.000000                         3.628400       -11.412000
Case 203 439.045727 -470.513109 1956.824844 -1730.507188 36.601073 -71.982851 268.426812 -246.585117 0.008851 -0.003544 -0.012312 0.027490 5.016624 -230000.000000                         4.854900       -12.442000
Case 204 387.506977 -559.906609 1909.989844 -1964.557188 39.331223 -70.275326 249.352812 -252.974367 0.009562 -0.003832 -0.013934 0.028137 5.669724 -230000.000000                         4.499500       -12.102000
Case 205 428.737977 -508.824609 1722.649844 -1777.317188 35.691023 -63.445226 274.784812 -278.531367 0.008614 -0.004216 -0.012637 0.025548 5.147244 -230000.000000                         4.162400       -11.620000
Case 206 408.122477 -483.283609 2003.659844 -1870.937188 37.511123 -66.860276 236.636812 -265.752867 0.009088 -0.003640 -0.011988 0.026843 4.886004 -230000.000000                         3.769000       -11.106000
Case 207 449.353477 -534.365609 1816.319844 -2058.177188 33.870923 -73.690376 262.068812 -240.195867 0.010036 -0.004024 -0.013285 0.024254 5.408484 -230000.000000                         4.606400       -12.519000
Case 208 374.622289 -473.705734 1921.698594 -1765.614688 33.188386 -73.263495 257.300312 -270.544805 0.009740 -0.004000 -0.011907 0.027652 5.571759 -230000.000000                         4.130500       -12.208000
Case 209 415.853289 -524.787734 1734.358594 -1952.854688 36.828586 -66.433395 231.868312 -244.987805 0.008792 -0.003616 -0.013204 0.025063 5.049279 -230000.000000                         3.912000       -11.389000
Case 210 395.237789 -550.328734 2015.368594 -2046.474688 35.008486 -63.018345 270.016312 -232.209305 0.009266 -0.004192 -0.013853 0.026357 4.788039 -230000.000000                         5.209300       -12.740000
Case 211 436.468789 -499.246734 1828.028594 -1859.234688 38.648686 -69.848445 244.584312 -257.766305 0.010214 -0.003808 -0.012556 0.023768 5.310519 -230000.000000                         3.947900       -11.387000
Case 212 384.930039 -512.017234 1781.193594 -1999.664688 37.738636 -74.971020 276.374312 -264.155555 0.009029 -0.003520 -0.013528 0.024415 4.918659 -230000.000000                         4.187700       -11.605000
Case 213 426.161039 -460.935234 1968.533594 -1812.424688 34.098436 -68.140920 250.942312 -238.598555 0.009977 -0.003904 -0.012231 0.027005 5.441139 -230000.000000                         4.820200       -12.707000
Case 214 405.545539 -486.476234 1687.523594 -1718.804688 39.558736 -64.725870 263.658312 -251.377055 0.009503 -0.003712 -0.012880 0.025710 5.702379 -230000.000000                         4.828900       -12.375000
Case 215 446.776539 -537.558234 1874.863594 -1906.044688 35.918536 -71.555970 238.226312 -276.934055 0.008555 -0.004096 -0.014177 0.028299 5.179899 -230000.000000                         3.420400       -10.909000
Case 216 379.776164 -543.943484 1710.941094 -1835.829688 34.553461 -72.409732 279.553312 -248.182430 0.009385 -0.003472 -0.011745 0.027975 5.375829 -230000.000000                         5.136200       -13.018000
Case 217 421.007164 -492.861484 1898.281094 -2023.069688 38.193661 -65.579632 254.121312 -273.739430 0.010333 -0.003856 -0.013042 0.025386 4.853349 -230000.000000                         3.857100       -11.126000
Case 218 400.391664 -467.320484 1804.611094 -1929.449688 36.373561 -62.164582 266.837312 -260.960930 0.009859 -0.003664 -0.013690 0.026681 5.114589 -230000.000000                         4.552800       -12.003000
Case 219 441.622664 -518.402484 1991.951094 -1742.209688 40.013761 -68.994682 241.405312 -235.403930 0.008911 -0.004048 -0.012393 0.024092 5.637069 -230000.000000                         4.521600       -12.096000
Case 220 390.083914 -505.631984 2038.786094 -1882.639688 37.283611 -74.117257 260.479312 -241.793180 0.009622 -0.003952 -0.013366 0.023444 4.983969 -230000.000000                         4.361500       -11.852000
Case 221 431.314914 -556.713984 1851.446094 -1695.399688 33.643411 -67.287157 235.047312 -267.350180 0.008674 -0.003568 -0.012069 0.026034 5.506449 -230000.000000                         3.674800       -11.556000
Case 222 410.699414 -531.172984 1945.116094 -1789.019688 39.103711 -63.872107 273.195312 -280.128680 0.009148 -0.004144 -0.012718 0.024739 5.245209 -230000.000000                         4.131700       -11.478000
Case 223 451.930414 -480.090984 1757.776094 -1976.259688 35.463511 -70.702207 247.763312 -254.571680 0.010096 -0.003760 -0.014015 0.027328 4.722729 -230000.000000                         4.023900       -11.482000
Case 224 373.333820 -500.843047 1775.339219 -1923.598438 38.079905 -67.927479 269.221562 -250.578398 0.008940 -0.004012 -0.012029 0.028218 5.261537 -230000.000000                         4.956200       -12.533000
Case 225 414.564820 -551.925047 1962.679219 -1736.358438 34.439705 -74.757579 243.789562 -276.135398 0.009888 -0.003628 -0.013326 0.025629 4.739057 -230000.000000                         3.326400       -10.724000
Case 226 393.949320 -526.384047 1869.009219 -1829.978438 39.900005 -71.342529 256.505562 -263.356898 0.010362 -0.004204 -0.013974 0.026924 5.000297 -230000.000000                         4.130800       -11.472000
Case 227 435.180320 -475.302047 2056.349219 -2017.218438 36.259805 -64.512429 231.073562 -237.799898 0.009414 -0.003820 -0.012677 0.024334 5.522777 -230000.000000                         4.238100       -11.934000
Case 228 383.641570 -539.154547 2009.514219 -1783.168438 33.529655 -66.219954 262.863562 -231.410648 0.010125 -0.003532 -0.013001 0.023687 5.130917 -230000.000000                         4.961400       -12.676000
Case 229 424.872570 -488.072547 1822.174219 -1970.408438 37.169855 -73.050054 237.431562 -256.967648 0.009177 -0.003916 -0.011704 0.026276 5.653397 -230000.000000                         4.001300       -11.805000
Case 230 404.257070 -462.531547 1915.844219 -1876.788438 35.349755 -69.635004 275.579562 -269.746148 0.008703 -0.003724 -0.012353 0.024982 5.392157 -230000.000000                         4.328600       -11.982000
Case 231 445.488070 -513.613547 1728.504219 -1689.548438 38.989955 -62.804904 250.147562 -244.189148 0.009651 -0.004108 -0.013650 0.027571 4.869677 -230000.000000                         4.627700       -12.000000
Case 232 378.487695 -519.998797 1892.426719 -2040.623438 36.714830 -67.073716 266.042562 -279.330023 0.010244 -0.003484 -0.012191 0.027247 5.718707 -230000.000000                         4.351100       -11.978000
Case 233 419.718695 -468.916797 1705.086719 -1853.383438 33.074630 -73.903816 240.610562 -253.773023 0.009296 -0.003868 -0.013488 0.024658 5.196227 -230000.000000                         3.634000       -11.525000
Case 234 399.103195 -494.457797 1986.096719 -1759.763438 38.534930 -70.488766 278.758562 -240.994523 0.008822 -0.003676 -0.014136 0.025953 4.934987 -230000.000000                         5.056300       -12.534000
Case 235 440.334195 -545.539797 1798.756719 -1947.003438 34.894730 -63.658666 253.326562 -266.551523 0.009770 -0.004060 -0.012839 0.023363 5.457467 -230000.000000                         3.917700       -11.507000
Case 236 388.795445 -481.687297 1845.591719 -1712.953438 33.984680 -65.366191 272.400562 -260.162273 0.008585 -0.003964 -0.013164 0.024011 4.804367 -230000.000000                         4.227400       -11.722000
Case 237 430.026445 -532.769297 2032.931719 -1900.193438 37.624880 -72.196291 246.968562 -234.605273 0.009533 -0.003580 -0.011866 0.026600 5.326847 -230000.000000                         4.781200       -12.465000
Case 238 409.410945 -558.310297 1751.921719 -1993.813438 35.804780 -68.781241 259.684562 -247.383773 0.010007 -0.004156 -0.012515 0.025305 5.588087 -230000.000000                         4.676500       -12.417000
Case 239 450.641945 -507.228297 1939.261719 -1806.573438 39.444980 -61.951141 234.252562 -272.940773 0.009059 -0.003772 -0.013812 0.027895 5.065607 -230000.000000                         3.720100       -10.949000
Case 240 375.910758 -555.117672 1810.465469 -1911.895938 38.307417 -64.085548 239.021062 -239.397211 0.008881 -0.003748 -0.012596 0.023849 4.837022 -230000.000000                         4.179400       -11.547000
Case 241 417.141758 -504.035672 1997.805469 -1724.655938 34.667217 -70.915648 264.453062 -264.954211 0.009829 -0.004132 -0.013893 0.026438 5.359502 -230000.000000                         4.204600       -11.908000
Case 242 396.526258 -478.494672 1716.795469 -1818.275938 36.487317 -74.330698 251.737062 -277.732711 0.010303 -0.003556 -0.013245 0.025144 5.620742 -230000.000000                         3.710300       -11.361000
Case 243 437.757258 -529.576672 1904.135469 -2005.515938 32.847117 -67.500598 277.169062 -252.175711 0.009355 -0.003940 -0.011948 0.027733 5.098262 -230000.000000                         4.965000       -12.744000
Case 244 386.218508 -491.265172 1950.970469 -1865.085938 35.577267 -62.378023 245.379062 -245.786461 0.010066 -0.004036 -0.014217 0.028380 5.490122 -230000.000000                         4.642700       -12.316000
Case 245 427.449508 -542.347172 1763.630469 -2052.325938 39.217467 -69.208123 270.811062 -271.343461 0.009118 -0.003652 -0.012920 0.025791 4.967642 -230000.000000                         4.210900       -11.552000
Case 246 406.834008 -516.806172 2044.640469 -1958.705938 33.757167 -72.623173 232.663062 -258.564961 0.008644 -0.003844 -0.012272 0.027085 4.706402 -230000.000000                         3.517400       -11.117000
Case 247 448.065008 -465.724172 1857.300469 -1771.465938 37.397367 -65.793073 258.095062 -233.007961 0.009592 -0.003460 -0.013569 0.024496 5.228882 -230000.000000                         4.914700       -12.460000
Case 248 381.064633 -472.109422 2021.222969 -1982.110938 39.672492 -63.231785 242.200062 -268.148836 0.010422 -0.004084 -0.012434 0.024173 5.032952 -230000.000000                         3.801800       -11.049000
Case 249 422.295633 -523.191422 1833.882969 -1794.870938 36.032292 -70.061885 267.632062 -242.591836 0.009473 -0.003700 -0.013731 0.026762 5.555432 -230000.000000                         4.993200       -12.748000
Case 250 401.680133 -548.732422 1927.552969 -1701.250938 37.852392 -73.476935 229.484062 -255.370336 0.008999 -0.003892 -0.013082 0.025467 5.294192 -230000.000000                         3.599000       -11.121000
Case 251 442.911133 -497.650422 1740.212969 -1888.490938 34.212192 -66.646835 254.916062 -280.927336 0.009948 -0.003508 -0.011785 0.028056 4.771712 -230000.000000                         3.878100       -11.313000
Case 252 391.372383 -535.961922 1693.377969 -1748.060938 35.122242 -61.524260 235.842062 -274.538086 0.008762 -0.003796 -0.014055 0.027409 5.424812 -230000.000000                         3.646800       -11.192000
Case 253 432.603383 -484.879922 1880.717969 -1935.300938 38.762442 -68.354360 261.274062 -248.981086 0.009711 -0.004180 -0.012758 0.024820 4.902332 -230000.000000                         4.473400       -11.850000
Case 254 411.987883 -510.420922 1787.047969 -2028.920938 33.302142 -71.769410 248.558062 -236.202586 0.010185 -0.003604 -0.012110 0.026115 5.163572 -230000.000000                         4.626400       -12.542000
Case 255 453.218883 -561.502922 1974.387969 -1841.680938 36.942342 -64.939310 273.990062 -261.759586 0.009236 -0.003988 -0.013407 0.023525 5.686052 -230000.000000                         4.486600       -12.064000
Case 256 371.240059 -510.620461 2026.345547 -1738.552656 35.278657 -66.566795 246.869219 -258.664793 0.009403 -0.004071 -0.012186 0.025659 4.822735 -230000.000000                         3.958300       -11.404000
Case 257 412.471059 -561.702461 1839.005547 -1925.792656 38.918857 -73.396895 272.301219 -233.107793 0.010351 -0.003687 -0.013483 0.028249 5.345215 -230000.000000                         5.374100       -13.052000
Case 258 391.855559 -536.161461 1932.675547 -2019.412656 33.458557 -69.981845 234.153219 -245.886293 0.009877 -0.003879 -0.014131 0.024365 5.606455 -230000.000000                         3.834900       -11.839000
Case 259 433.086559 -485.079461 1745.335547 -1832.172656 37.098757 -63.151745 259.585219 -271.443293 0.008929 -0.003495 -0.012834 0.026954 5.083975 -230000.000000                         4.185400       -11.586000
Case 260 381.547809 -548.931961 1698.500547 -1972.602656 39.828907 -68.274320 240.511219 -277.832543 0.009640 -0.003783 -0.013158 0.026307 5.737075 -230000.000000                         3.757600       -11.195000
Case 261 422.778809 -497.849961 1885.840547 -1785.362656 36.188707 -75.104420 265.943219 -252.275543 0.008692 -0.004167 -0.011861 0.023717 5.214595 -230000.000000                         4.305000       -11.961000
Case 262 402.163309 -472.308961 1792.170547 -1691.742656 38.008807 -71.689370 253.227219 -239.497043 0.009166 -0.003591 -0.012510 0.027601 4.953355 -230000.000000                         4.729100       -12.245000
Case 263 443.394309 -523.390961 1979.510547 -1878.982656 34.368607 -64.859270 278.659219 -265.054043 0.010114 -0.003975 -0.013807 0.025012 5.475835 -230000.000000                         4.559200       -12.204000
Case 264 376.393934 -517.005711 1815.588047 -1855.577656 35.733682 -65.713032 237.332219 -236.302418 0.009759 -0.003831 -0.012024 0.024688 5.149285 -230000.000000                         4.387700       -11.990000
Case 265 417.624934 -465.923711 2002.928047 -2042.817656 39.373882 -72.543132 262.764219 -261.859418 0.008811 -0.004215 -0.013321 0.027278 5.671765 -230000.000000                         4.441100       -12.033000
Case 266 397.009434 -491.464711 1721.918047 -1949.197656 33.913582 -69.128082 250.048219 -274.637918 0.009285 -0.003639 -0.013969 0.023394 5.410525 -230000.000000                         3.465300       -11.104000
Case 267 438.240434 -542.546711 1909.258047 -1761.957656 37.553782 -62.297982 275.480219 -249.080918 0.010233 -0.004023 -0.012672 0.025983 4.888045 -230000.000000                         4.984100       -12.437000
Case 268 386.701684 -478.694211 1956.093047 -1902.387656 38.463832 -67.420557 243.690219 -255.470168 0.009048 -0.004119 -0.012996 0.026630 5.279905 -230000.000000                         4.144700       -11.615000
Case 269 427.932684 -529.776211 1768.753047 -1715.147656 34.823632 -74.250657 269.122219 -281.027168 0.009996 -0.003735 -0.011699 0.024041 4.757425 -230000.000000                         3.719300       -11.132000
Case 270 407.317184 -555.317211 2049.763047 -1808.767656 36.643732 -70.835607 230.974219 -268.248668 0.009522 -0.003927 -0.012348 0.027925 5.018665 -230000.000000                         3.603700       -11.054000
Case 271 448.548184 -504.235211 1862.423047 -1996.007656 33.003532 -64.005507 256.406219 -242.691668 0.008574 -0.003543 -0.013645 0.025336 5.541145 -230000.000000                         4.652900       -12.622000
Case 272 373.816996 -558.509836 1874.131797 -1726.850156 33.686070 -62.724864 261.174719 -269.845980 0.009344 -0.003519 -0.012429 0.026469 5.443180 -230000.000000                         4.302600       -12.022000
Case 273 415.047996 -507.427836 1686.791797 -1914.090156 37.326270 -69.554964 235.742719 -244.288980 0.010292 -0.003903 -0.013726 0.023879 4.920700 -230000.000000                         3.853400       -11.249000
Case 274 394.432496 -481.886836 1967.801797 -2007.710156 35.506170 -72.970014 273.890719 -231.510480 0.009818 -0.003711 -0.013077 0.027763 5.181940 -230000.000000                         5.374000       -13.139000
Case 275 435.663496 -532.968836 1780.461797 -1820.470156 39.146370 -66.139914 248.458719 -257.067480 0.008870 -0.004095 -0.011780 0.025174 5.704420 -230000.000000                         4.319600       -11.875000
Case 276 384.124746 -494.657336 1827.296797 -2054.520156 36.416220 -64.432389 267.532719 -263.456730 0.009581 -0.003999 -0.014050 0.025821 5.051320 -230000.000000                         4.319300       -11.738000
Case 277 425.355746 -545.739336 2014.636797 -1867.280156 32.776020 -71.262489 242.100719 -237.899730 0.008633 -0.003615 -0.012753 0.028410 5.573800 -230000.000000                         4.597600       -12.976000
Case 278 404.740246 -520.198336 1733.626797 -1773.660156 38.236320 -74.677539 254.816719 -250.678230 0.009107 -0.004191 -0.012105 0.024527 5.312560 -230000.000000                         4.243500       -11.814000
Case 279 445.971246 -469.116336 1920.966797 -1960.900156 34.596120 -67.847439 229.384719 -276.235230 0.010055 -0.003807 -0.013402 0.027116 4.790080 -230000.000000                         3.315600       -10.641000
Case 280 378.970871 -462.731086 1757.044297 -1797.065156 33.231045 -61.871101 270.711719 -247.483605 0.009936 -0.003951 -0.012591 0.026792 5.508490 -230000.000000                         5.066300       -12.897000
Case 281 420.201871 -513.813086 1944.384297 -1984.305156 36.871245 -68.701201 245.279719 -273.040605 0.008988 -0.003567 -0.013888 0.024203 4.986010 -230000.000000                         3.440500       -10.714000
Case 282 399.586371 -539.354086 1850.714297 -1890.685156 35.051145 -72.116251 257.995719 -260.262105 0.009462 -0.004143 -0.013240 0.028087 4.724770 -230000.000000                         4.133100       -11.633000
Case 283 440.817371 -488.272086 2038.054297 -1703.445156 38.691345 -65.286151 232.563719 -234.705105 0.010410 -0.003759 -0.011942 0.025498 5.247250 -230000.000000                         4.529900       -12.032000
Case 284 389.278621 -526.583586 1991.219297 -1937.495156 37.781295 -63.578626 264.353719 -241.094355 0.009225 -0.003471 -0.014212 0.024850 4.855390 -230000.000000                         4.742900       -12.158000
Case 285 430.509621 -475.501586 1803.879297 -1750.255156 34.141095 -70.408726 238.921719 -266.651355 0.010173 -0.003855 -0.012915 0.027439 5.377870 -230000.000000                         3.809500       -11.608000
Case 286 409.894121 -501.042586 1897.549297 -1843.875156 39.601395 -73.823776 277.069719 -279.429855 0.009699 -0.003663 -0.012267 0.023556 5.639110 -230000.000000                         4.139000       -11.615000
Case 287 451.125121 -552.124586 1710.209297 -2031.115156 35.961195 -66.993676 251.637719 -253.872855 0.008751 -0.004047 -0.013564 0.026145 5.116630 -230000.000000                         4.176300       -11.714000
Case 288 372.528527 -531.372523 1727.772422 -1884.833906 36.985001 -71.049048 274.685469 -251.476887 0.010381 -0.003531 -0.012956 0.027035 5.655438 -230000.000000                         5.002200       -12.727000
Case 289 413.759527 -480.290523 1915.112422 -1697.593906 33.344801 -64.218948 249.253469 -277.033887 0.009433 -0.003915 -0.014253 0.024446 5.132958 -230000.000000                         3.487000       -10.971000
Case 290 393.144027 -505.831523 1821.442422 -1791.213906 38.805101 -67.633998 261.969469 -264.255387 0.008959 -0.003723 -0.013604 0.028329 4.871718 -230000.000000                         4.330400       -11.678000
Case 291 434.375027 -556.913523 2008.782422 -1978.453906 35.164901 -74.464098 236.537469 -238.698387 0.009907 -0.004107 -0.012307 0.025740 5.394198 -230000.000000                         4.216700       -12.157000
Case 292 382.836277 -467.520023 2055.617422 -1838.023906 34.254851 -69.341523 255.611469 -232.309137 0.008722 -0.004011 -0.013929 0.025093 4.741098 -230000.000000                         4.558000       -12.143000
Case 293 424.067277 -518.602023 1868.277422 -2025.263906 37.895051 -62.511423 230.179469 -257.866137 0.009670 -0.003627 -0.012632 0.027682 5.263578 -230000.000000                         4.061400       -11.513000
Case 294 403.451777 -544.143023 1961.947422 -1931.643906 36.074951 -65.926473 268.327469 -270.644637 0.010144 -0.004203 -0.011983 0.023798 5.524818 -230000.000000                         4.245300       -11.804000
Case 295 444.682777 -493.061023 1774.607422 -1744.403906 39.715151 -72.756573 242.895469 -245.087637 0.009196 -0.003819 -0.013280 0.026388 5.002338 -230000.000000                         4.201000       -11.619000
Case 296 377.682402 -486.675773 1938.529922 -2001.858906 37.440026 -70.195286 258.790469 -280.228512 0.008840 -0.003963 -0.012794 0.026064 5.328888 -230000.000000                         3.815000       -11.273000
Case 297 418.913402 -537.757773 1751.189922 -1814.618906 33.799826 -63.365186 233.358469 -254.671512 0.009788 -0.003579 -0.014091 0.023475 4.806408 -230000.000000                         3.538100       -10.926000
Case 298 398.297902 -512.216773 2032.199922 -1720.998906 39.260126 -66.780236 271.506469 -241.893012 0.010262 -0.004155 -0.013442 0.027359 5.067648 -230000.000000                         5.135300       -12.624000
Case 299 439.528902 -461.134773 1844.859922 -1908.238906 35.619926 -73.610336 246.074469 -267.450012 0.009314 -0.003771 -0.012145 0.024769 5.590128 -230000.000000                         3.755200       -11.549000
Case 300 387.990152 -550.528273 1798.024922 -1767.808906 32.889776 -68.487761 277.864469 -261.060762 0.010025 -0.003483 -0.013766 0.025417 5.198268 -230000.000000                         4.538200       -12.255000
Case 301 429.221152 -499.446273 1985.364922 -1955.048906 36.529976 -61.657661 252.432469 -235.503762 0.009077 -0.003867 -0.012469 0.028006 5.720748 -230000.000000                         5.144300       -12.951000
Case 302 408.605652 -473.905273 1704.354922 -2048.668906 34.709876 -65.072711 265.148469 -248.282262 0.008603 -0.003675 -0.011821 0.024122 5.459508 -230000.000000                         4.703800       -12.454000
Case 303 449.836652 -524.987273 1891.694922 -1861.428906 38.350076 -71.902811 239.716469 -273.839262 0.009551 -0.004059 -0.013118 0.026711 4.937028 -230000.000000                         3.527500       -10.796000
Case 304 375.105465 -483.483148 1856.568672 -1943.346406 39.487638 -74.890979 234.947969 -237.101074 0.010203 -0.004035 -0.011740 0.024931 4.969683 -230000.000000                         4.184200       -11.651000
Case 305 416.336465 -534.565148 2043.908672 -1756.106406 35.847438 -68.060879 260.379969 -262.658074 0.009255 -0.003651 -0.013037 0.027520 5.492163 -230000.000000                         4.436000       -12.124000
Case 306 395.720965 -560.106148 1762.898672 -1849.726406 37.667538 -64.645829 247.663969 -275.436574 0.008781 -0.003843 -0.013685 0.023637 5.230923 -230000.000000                         3.526500       -10.812000
Case 307 436.951965 -509.024148 1950.238672 -2036.966406 34.027338 -71.475929 273.095969 -249.879574 0.009729 -0.003459 -0.012388 0.026226 4.708443 -230000.000000                         4.691100       -12.256000
Case 308 385.413215 -521.794648 1903.403672 -1802.916406 34.937388 -73.183454 254.021969 -243.490324 0.008544 -0.003747 -0.013361 0.026873 5.361543 -230000.000000                         4.505600       -12.413000
Case 309 426.644215 -470.712648 1716.063672 -1990.156406 38.577588 -66.353354 279.453969 -269.047324 0.009492 -0.004131 -0.012064 0.024284 4.839063 -230000.000000                         4.367500       -11.703000
Case 310 406.028715 -496.253648 1997.073672 -1896.536406 33.117288 -62.938304 241.305969 -256.268824 0.009966 -0.003555 -0.012713 0.028168 5.100303 -230000.000000                         4.225900       -11.922000
Case 311 447.259715 -547.335648 1809.733672 -1709.296406 36.757488 -69.768404 266.737969 -230.711824 0.009018 -0.003939 -0.014010 0.025578 5.622783 -230000.000000                         5.219000       -12.974000
Case 312 380.259340 -540.950398 1973.656172 -2013.561406 39.032613 -74.037217 250.842969 -265.852699 0.008899 -0.003795 -0.011902 0.025255 4.904373 -230000.000000                         3.808800       -11.143000
Case 313 421.490340 -489.868398 1786.316172 -1826.321406 35.392413 -67.207117 276.274969 -240.295699 0.009848 -0.004179 -0.013199 0.027844 5.426853 -230000.000000                         5.294500       -13.075000
Case 314 400.874840 -464.327398 1879.986172 -1732.701406 37.212513 -63.792067 238.126969 -253.074199 0.010322 -0.003603 -0.013848 0.023960 5.688093 -230000.000000                         4.045900       -11.621000
Case 315 442.105840 -515.409398 1692.646172 -1919.941406 33.572313 -70.622167 263.558969 -278.631199 0.009373 -0.003987 -0.012550 0.026549 5.165613 -230000.000000                         3.894200       -11.585000
Case 316 390.567090 -502.638898 1739.481172 -1685.891406 36.302463 -72.329692 231.768969 -272.241949 0.010085 -0.004083 -0.013523 0.025902 5.557473 -230000.000000                         3.447300       -11.042000
Case 317 431.798090 -553.720898 1926.821172 -1873.131406 39.942663 -65.499592 257.200969 -246.684949 0.009136 -0.003699 -0.012226 0.023313 5.034993 -230000.000000                         4.460100       -11.824000
Case 318 411.182590 -528.179898 1833.151172 -1966.751406 34.482363 -62.084542 244.484969 -233.906449 0.008662 -0.003891 -0.012875 0.027197 4.773753 -230000.000000                         4.670300       -12.213000
Case 319 452.413590 -477.097898 2020.491172 -1779.511406 38.122563 -68.914642 269.916969 -259.463449 0.009611 -0.003507 -0.014172 0.024608 5.296233 -230000.000000                         4.395000       -11.844000
Case 320 371.884293 -544.941180 1847.787109 -1788.288281 37.383148 -67.313837 254.419344 -273.439934 0.010010 -0.003669 -0.013787 0.024162 5.173777 -230000.000000                         3.747900       -11.096000
Case 321 413.115293 -493.859180 2035.127109 -1975.528281 33.742948 -74.143937 228.987344 -247.882934 0.009062 -0.004053 -0.012490 0.026752 5.696257 -230000.000000                         3.863900       -12.102000
Case 322 392.499793 -468.318180 1754.117109 -1881.908281 39.203248 -70.728887 267.135344 -235.104434 0.008588 -0.003477 -0.011841 0.025457 5.435017 -230000.000000                         5.182800       -12.795000
Case 323 433.730793 -519.400180 1941.457109 -1694.668281 35.563048 -63.898787 241.703344 -260.661434 0.009536 -0.003861 -0.013138 0.028046 4.912537 -230000.000000                         4.035000       -11.483000
Case 324 382.192043 -506.629680 1894.622109 -1928.718281 32.832898 -65.606312 273.493344 -267.050684 0.008825 -0.004149 -0.012814 0.027399 5.304397 -230000.000000                         4.508000       -12.304000
Case 325 423.423043 -557.711680 1707.282109 -1741.478281 36.473098 -72.436412 248.061344 -241.493684 0.009773 -0.003765 -0.014111 0.024810 4.781917 -230000.000000                         4.117900       -11.584000
Case 326 402.807543 -532.170680 1988.292109 -1835.098281 34.652998 -69.021362 260.777344 -254.272184 0.010248 -0.003957 -0.013462 0.026104 5.043157 -230000.000000                         4.374700       -11.952000
Case 327 444.038543 -481.088680 1800.952109 -2022.338281 38.293198 -62.191262 235.345344 -279.829184 0.009299 -0.003573 -0.012165 0.023515 5.565637 -230000.000000                         3.523900       -10.856000
Case 328 377.038168 -474.703430 2011.709609 -1718.073281 36.928123 -68.167600 276.672344 -244.688309 0.008707 -0.004197 -0.013625 0.023839 4.716607 -230000.000000                         4.665300       -12.087000
Case 329 418.269168 -525.785430 1824.369609 -1905.313281 33.287923 -74.997700 251.240344 -270.245309 0.009655 -0.003813 -0.012328 0.026428 5.239087 -230000.000000                         3.764200       -11.652000
Case 330 397.653668 -551.326430 1918.039609 -1998.933281 38.748223 -71.582650 263.956344 -257.466809 0.010129 -0.004005 -0.011679 0.025133 5.500327 -230000.000000                         4.546000       -12.089000
Case 331 438.884668 -500.244430 1730.699609 -1811.693281 35.108023 -64.752550 238.524344 -231.909809 0.009181 -0.003621 -0.012976 0.027723 4.977847 -230000.000000                         4.669800       -12.295000
Case 332 387.345918 -513.014930 1777.534609 -2045.743281 34.197973 -66.460075 257.598344 -238.299059 0.010366 -0.003717 -0.012652 0.028370 5.630947 -230000.000000                         5.099400       -13.052000
Case 333 428.576918 -461.932930 1964.874609 -1858.503281 37.838173 -73.290175 232.166344 -263.856059 0.009418 -0.004101 -0.013949 0.025781 5.108467 -230000.000000                         3.428000       -10.785000
Case 334 407.961418 -487.473930 1871.204609 -1764.883281 36.018073 -69.875125 270.314344 -276.634559 0.008944 -0.003525 -0.013300 0.027075 4.847227 -230000.000000                         4.048800       -11.462000
Case 335 449.192418 -538.555930 2058.544609 -1952.123281 39.658273 -63.045025 244.882344 -251.077559 0.009892 -0.003909 -0.012003 0.024486 5.369707 -230000.000000                         4.360500       -11.773000
Case 336 374.461230 -497.051805 1695.573359 -1870.205781 38.975735 -63.471906 252.829844 -259.064121 0.010188 -0.003933 -0.013381 0.027237 5.598292 -230000.000000                         4.520100       -12.011000
Case 337 415.692230 -548.133805 1882.913359 -2057.445781 35.335535 -70.302006 278.261844 -233.507121 0.009240 -0.003549 -0.012084 0.024648 5.075812 -230000.000000                         5.296400       -12.948000
Case 338 395.076730 -522.592805 1789.243359 -1963.825781 37.155635 -73.717056 240.113844 -246.285621 0.008766 -0.004125 -0.012733 0.025943 4.814572 -230000.000000                         3.919400       -11.391000
Case 339 436.307730 -471.510805 1976.583359 -1776.585781 33.515435 -66.886956 265.545844 -271.842621 0.009714 -0.003741 -0.014030 0.023353 5.337052 -230000.000000                         3.853100       -11.501000
Case 340 384.768980 -560.904305 2023.418359 -1917.015781 36.245585 -61.764381 233.755844 -278.231871 0.009003 -0.003645 -0.011760 0.024001 4.945192 -230000.000000                         3.387400       -10.606000
Case 341 425.999980 -509.822305 1836.078359 -1729.775781 39.885785 -68.594481 259.187844 -252.674871 0.009951 -0.004029 -0.013057 0.026590 5.467672 -230000.000000                         4.649300       -12.134000
Case 342 405.384480 -484.281305 1929.748359 -1823.395781 34.425485 -72.009531 246.471844 -239.896371 0.010425 -0.003837 -0.013706 0.025295 5.728912 -230000.000000                         4.463400       -12.503000
Case 343 446.615480 -535.363305 1742.408359 -2010.635781 38.065685 -65.179431 271.903844 -265.453371 0.009477 -0.004221 -0.012409 0.027884 5.206432 -230000.000000                         4.663700       -12.119000
Case 344 379.615105 -528.978055 1953.165859 -1753.180781 39.430760 -64.325668 230.576844 -230.312496 0.008648 -0.003597 -0.013544 0.028208 5.402362 -230000.000000                         4.718900       -12.283000
Case 345 420.846105 -477.896055 1765.825859 -1940.420781 35.790560 -71.155768 256.008844 -255.869496 0.009596 -0.003981 -0.012246 0.025619 4.879882 -230000.000000                         4.165800       -11.666000
Case 346 400.230605 -503.437055 2046.835859 -2034.040781 37.610660 -74.570818 243.292844 -268.647996 0.010070 -0.003789 -0.012895 0.026914 5.141122 -230000.000000                         3.750200       -11.222000
Case 347 441.461605 -554.519055 1859.495859 -1846.800781 33.970460 -67.740718 268.724844 -243.090996 0.009122 -0.004173 -0.014192 0.024324 5.663602 -230000.000000                         4.761800       -12.679000
Case 348 389.922855 -465.125555 1812.660859 -1987.230781 34.880510 -62.618143 249.650844 -249.480246 0.010307 -0.003885 -0.011922 0.023677 5.010502 -230000.000000                         4.280600       -11.775000
Case 349 431.153855 -516.207555 2000.000859 -1799.990781 38.520710 -69.448243 275.082844 -275.037246 0.009359 -0.003501 -0.013219 0.026266 5.532982 -230000.000000                         4.384200       -11.878000
Case 350 410.538355 -541.748555 1718.990859 -1706.370781 33.060410 -72.863293 236.934844 -262.258746 0.008885 -0.004077 -0.013868 0.024972 5.271742 -230000.000000                         3.375200       -11.192000
Case 351 451.769355 -490.666555 1906.330859 -1893.610781 36.700610 -66.033193 262.366844 -236.701746 0.009833 -0.003693 -0.012571 0.027561 4.749262 -230000.000000                         5.050600       -12.542000
Case 352 373.172762 -469.914492 1912.185234 -2028.189531 35.904316 -68.381040 240.908594 -242.292340 0.009092 -0.003897 -0.013260 0.027965 5.255414 -230000.000000                         4.440000       -12.143000
Case 353 414.403762 -520.996492 1724.845234 -1840.949531 39.544516 -61.550940 266.340594 -267.849340 0.010040 -0.003513 -0.011963 0.025376 4.732934 -230000.000000                         4.353300       -11.651000
Case 354 393.788262 -546.537492 2005.855234 -1747.329531 34.084216 -64.965990 253.624594 -280.627840 0.009566 -0.004089 -0.012611 0.026671 4.994174 -230000.000000                         3.747300       -11.212000
Case 355 435.019262 -495.455492 1818.515234 -1934.569531 37.724416 -71.796090 279.056594 -255.070840 0.008618 -0.003705 -0.013908 0.024082 5.516654 -230000.000000                         4.617300       -12.207000
Case 356 383.480512 -533.766992 1865.350234 -1700.519531 38.634466 -70.088565 247.266594 -248.681590 0.009803 -0.003609 -0.012287 0.023434 5.124794 -230000.000000                         4.141400       -11.579000
Case 357 424.711512 -482.684992 2052.690234 -1887.759531 34.994266 -63.258465 272.698594 -274.238590 0.008855 -0.003993 -0.013584 0.026023 5.647274 -230000.000000                         4.337200       -12.013000
Case 358 404.096012 -508.225992 1771.680234 -1981.379531 36.814366 -66.673515 234.550594 -261.460090 0.009329 -0.003801 -0.014233 0.024729 5.386034 -230000.000000                         3.608500       -11.072000
Case 359 445.327012 -559.307992 1959.020234 -1794.139531 33.174166 -73.503615 259.982594 -235.903090 0.010277 -0.004185 -0.012936 0.027318 4.863554 -230000.000000                         4.803500       -12.577000
Case 360 378.326637 -552.922742 1748.262734 -1957.974531 35.449291 -69.234803 244.087594 -264.654715 0.009685 -0.003561 -0.013098 0.027642 5.712584 -230000.000000                         4.098400       -11.952000
Case 361 419.557637 -501.840742 1935.602734 -1770.734531 39.089491 -62.404703 269.519594 -239.097715 0.008737 -0.003945 -0.011801 0.025053 5.190104 -230000.000000                         5.163400       -12.664000
Case 362 398.942137 -476.299742 1841.932734 -1864.354531 33.629191 -65.819753 231.371594 -251.876215 0.009211 -0.003753 -0.012449 0.026347 4.928864 -230000.000000                         3.824400       -11.456000
Case 363 440.173137 -527.381742 2029.272734 -2051.594531 37.269391 -72.649853 256.803594 -277.433215 0.010159 -0.004137 -0.013746 0.023758 5.451344 -230000.000000                         3.625700       -11.076000
Case 364 388.634387 -489.070242 1982.437734 -1817.544531 39.999541 -70.942328 237.729594 -271.043965 0.009448 -0.003849 -0.012125 0.024405 4.798244 -230000.000000                         3.468300       -10.622000
Case 365 429.865387 -540.152242 1795.097734 -2004.784531 36.359341 -64.112228 263.161594 -245.486965 0.010396 -0.003465 -0.013422 0.026994 5.320724 -230000.000000                         4.944500       -12.535000
Case 366 409.249887 -514.611242 1888.767734 -1911.164531 38.179441 -67.527278 250.445594 -232.708465 0.009922 -0.004041 -0.014070 0.025700 5.581964 -230000.000000                         4.868800       -12.496000
Case 367 450.480887 -463.529242 1701.427734 -1723.924531 34.539241 -74.357378 275.877594 -258.265465 0.008974 -0.003657 -0.012773 0.028289 5.059484 -230000.000000                         4.672600       -12.390000
Case 368 375.749699 -517.803867 2040.981484 -1993.082031 33.401679 -72.222971 267.930094 -253.473527 0.009151 -0.003681 -0.013989 0.023596 4.896209 -230000.000000                         4.108900       -11.759000
Case 369 416.980699 -466.721867 1853.641484 -1805.842031 37.041879 -65.392871 242.498094 -279.030527 0.010099 -0.004065 -0.012692 0.026185 5.418689 -230000.000000                         3.724900       -11.161000
Case 370 396.365199 -492.262867 1947.311484 -1712.222031 35.221779 -61.977821 255.214094 -266.252027 0.009625 -0.003489 -0.012044 0.024891 5.679929 -230000.000000                         4.281100       -11.960000
Case 371 437.596199 -543.344867 1759.971484 -1899.462031 38.861979 -68.807921 229.782094 -240.695027 0.008677 -0.003873 -0.013341 0.027480 5.157449 -230000.000000                         4.172900       -11.675000
Case 372 386.057449 -479.492367 1713.136484 -1759.032031 37.951929 -73.930496 261.572094 -234.305777 0.009862 -0.004161 -0.012368 0.028127 5.549309 -230000.000000                         5.171100       -12.954000
Case 373 427.288449 -530.574367 1900.476484 -1946.272031 34.311729 -67.100396 236.140094 -259.862777 0.008914 -0.003777 -0.013665 0.025538 5.026829 -230000.000000                         3.597800       -11.142000
Case 374 406.672949 -556.115367 1806.806484 -2039.892031 39.772029 -63.685346 274.288094 -272.641277 0.009388 -0.003969 -0.013017 0.026833 4.765589 -230000.000000                         4.372000       -11.666000
Case 375 447.903949 -505.033367 1994.146484 -1852.652031 36.131829 -70.515446 248.856094 -247.084277 0.010336 -0.003585 -0.011720 0.024243 5.288069 -230000.000000                         4.346200       -11.982000
Case 376 380.903574 -498.648117 1783.388984 -1876.057031 33.856704 -73.076734 264.751094 -275.835902 0.009507 -0.004209 -0.014152 0.024567 5.092139 -230000.000000                         3.629100       -11.218000
Case 377 422.134574 -549.730117 1970.728984 -1688.817031 37.496904 -66.246634 239.319094 -250.278902 0.008559 -0.003825 -0.012854 0.027156 5.614619 -230000.000000                         4.314600       -12.001000
Case 378 401.519074 -524.189117 1689.718984 -1782.437031 35.676804 -62.831584 277.467094 -237.500402 0.009033 -0.004017 -0.012206 0.025862 5.353379 -230000.000000                         5.372300       -13.074000
Case 379 442.750074 -473.107117 1877.058984 -1969.677031 39.317004 -69.661684 252.035094 -263.057402 0.009981 -0.003633 -0.013503 0.028451 4.830899 -230000.000000                         4.176800       -11.511000